%!PS-Adobe-3.0 EPSF-3.0
%%Creator: MATLAB, The Mathworks, Inc. Version 7.8.0.347 (R2009a). Operating System: Microsoft Windows Vista.
%%Title: C:\Users\gomes\Documents\University\TCC\gitRepo\paper\Dados e Figuras\evolution.eps
%%CreationDate: 09/10/2017  10:38:53
%%DocumentNeededFonts: Helvetica
%%DocumentProcessColors: Cyan Magenta Yellow Black
%%LanguageLevel: 2
%%Pages: 1
%%BoundingBox:    43   133   568   658
%%EndComments

%%BeginProlog
% MathWorks dictionary
/MathWorks 160 dict begin
% definition operators
/bdef {bind def} bind def
/ldef {load def} bind def
/xdef {exch def} bdef
/xstore {exch store} bdef
% operator abbreviations
/c  /clip ldef
/cc /concat ldef
/cp /closepath ldef
/gr /grestore ldef
/gs /gsave ldef
/mt /moveto ldef
/np /newpath ldef
/cm /currentmatrix ldef
/sm /setmatrix ldef
/rm /rmoveto ldef
/rl /rlineto ldef
/s {show newpath} bdef
/sc {setcmykcolor} bdef
/sr /setrgbcolor ldef
/sg /setgray ldef
/w /setlinewidth ldef
/j /setlinejoin ldef
/cap /setlinecap ldef
/rc {rectclip} bdef
/rf {rectfill} bdef
% page state control
/pgsv () def
/bpage {/pgsv save def} bdef
/epage {pgsv restore} bdef
/bplot /gsave ldef
/eplot {stroke grestore} bdef
% orientation switch
/portraitMode 0 def /landscapeMode 1 def /rotateMode 2 def
% coordinate system mappings
/dpi2point 0 def
% font control
/FontSize 0 def
/FMS {/FontSize xstore findfont [FontSize 0 0 FontSize neg 0 0]
  makefont setfont} bdef
/ISOLatin1Encoding where {pop /WindowsLatin1Encoding 256 array bdef
ISOLatin1Encoding WindowsLatin1Encoding copy pop
/.notdef/.notdef/quotesinglbase/florin/quotedblbase/ellipsis/dagger
/daggerdbl/circumflex/perthousand/Scaron/guilsinglleft/OE/.notdef/.notdef
/.notdef/.notdef/quoteleft/quoteright/quotedblleft/quotedblright/bullet
/endash/emdash/tilde/trademark/scaron/guilsinglright/oe/.notdef/.notdef
/Ydieresis WindowsLatin1Encoding 128 32 getinterval astore pop}
{/WindowsLatin1Encoding StandardEncoding bdef} ifelse
/reencode {exch dup where {pop load} {pop StandardEncoding} ifelse
  exch dup 3 1 roll findfont dup length dict begin
  { 1 index /FID ne {def}{pop pop} ifelse } forall
  /Encoding exch def currentdict end definefont pop} bdef
/isroman {findfont /CharStrings get /Agrave known} bdef
/FMSR {3 1 roll 1 index dup isroman {reencode} {pop pop} ifelse
  exch FMS} bdef
/csm {1 dpi2point div -1 dpi2point div scale neg translate
 dup landscapeMode eq {pop -90 rotate}
  {rotateMode eq {90 rotate} if} ifelse} bdef
% line types: solid, dotted, dashed, dotdash
/SO { [] 0 setdash } bdef
/DO { [.5 dpi2point mul 4 dpi2point mul] 0 setdash } bdef
/DA { [6 dpi2point mul] 0 setdash } bdef
/DD { [.5 dpi2point mul 4 dpi2point mul 6 dpi2point mul 4
  dpi2point mul] 0 setdash } bdef
% macros for lines and objects
/L {lineto stroke} bdef
/MP {3 1 roll moveto 1 sub {rlineto} repeat} bdef
/AP {{rlineto} repeat} bdef
/PDlw -1 def
/W {/PDlw currentlinewidth def setlinewidth} def
/PP {closepath eofill} bdef
/DP {closepath stroke} bdef
/MR {4 -2 roll moveto dup  0 exch rlineto exch 0 rlineto
  neg 0 exch rlineto closepath} bdef
/FR {MR stroke} bdef
/PR {MR fill} bdef
/L1i {{currentfile picstr readhexstring pop} image} bdef
/tMatrix matrix def
/MakeOval {newpath tMatrix currentmatrix pop translate scale
0 0 1 0 360 arc tMatrix setmatrix} bdef
/FO {MakeOval stroke} bdef
/PO {MakeOval fill} bdef
/PD {currentlinewidth 2 div 0 360 arc fill
   PDlw -1 eq not {PDlw w /PDlw -1 def} if} def
/FA {newpath tMatrix currentmatrix pop translate scale
  0 0 1 5 -2 roll arc tMatrix setmatrix stroke} bdef
/PA {newpath tMatrix currentmatrix pop	translate 0 0 moveto scale
  0 0 1 5 -2 roll arc closepath tMatrix setmatrix fill} bdef
/FAn {newpath tMatrix currentmatrix pop translate scale
  0 0 1 5 -2 roll arcn tMatrix setmatrix stroke} bdef
/PAn {newpath tMatrix currentmatrix pop translate 0 0 moveto scale
  0 0 1 5 -2 roll arcn closepath tMatrix setmatrix fill} bdef
/vradius 0 def /hradius 0 def /lry 0 def
/lrx 0 def /uly 0 def /ulx 0 def /rad 0 def
/MRR {/vradius xdef /hradius xdef /lry xdef /lrx xdef /uly xdef
  /ulx xdef newpath tMatrix currentmatrix pop ulx hradius add uly
  vradius add translate hradius vradius scale 0 0 1 180 270 arc 
  tMatrix setmatrix lrx hradius sub uly vradius add translate
  hradius vradius scale 0 0 1 270 360 arc tMatrix setmatrix
  lrx hradius sub lry vradius sub translate hradius vradius scale
  0 0 1 0 90 arc tMatrix setmatrix ulx hradius add lry vradius sub
  translate hradius vradius scale 0 0 1 90 180 arc tMatrix setmatrix
  closepath} bdef
/FRR {MRR stroke } bdef
/PRR {MRR fill } bdef
/MlrRR {/lry xdef /lrx xdef /uly xdef /ulx xdef /rad lry uly sub 2 div def
  newpath tMatrix currentmatrix pop ulx rad add uly rad add translate
  rad rad scale 0 0 1 90 270 arc tMatrix setmatrix lrx rad sub lry rad
  sub translate rad rad scale 0 0 1 270 90 arc tMatrix setmatrix
  closepath} bdef
/FlrRR {MlrRR stroke } bdef
/PlrRR {MlrRR fill } bdef
/MtbRR {/lry xdef /lrx xdef /uly xdef /ulx xdef /rad lrx ulx sub 2 div def
  newpath tMatrix currentmatrix pop ulx rad add uly rad add translate
  rad rad scale 0 0 1 180 360 arc tMatrix setmatrix lrx rad sub lry rad
  sub translate rad rad scale 0 0 1 0 180 arc tMatrix setmatrix
  closepath} bdef
/FtbRR {MtbRR stroke } bdef
/PtbRR {MtbRR fill } bdef
/stri 6 array def /dtri 6 array def
/smat 6 array def /dmat 6 array def
/tmat1 6 array def /tmat2 6 array def /dif 3 array def
/asub {/ind2 exch def /ind1 exch def dup dup
  ind1 get exch ind2 get sub exch } bdef
/tri_to_matrix {
  2 0 asub 3 1 asub 4 0 asub 5 1 asub
  dup 0 get exch 1 get 7 -1 roll astore } bdef
/compute_transform {
  dmat dtri tri_to_matrix tmat1 invertmatrix 
  smat stri tri_to_matrix tmat2 concatmatrix } bdef
/ds {stri astore pop} bdef
/dt {dtri astore pop} bdef
/db {2 copy /cols xdef /rows xdef mul dup 3 mul string
  currentfile 
  3 index 0 eq {/ASCIIHexDecode filter}
  {/ASCII85Decode filter 3 index 2 eq {/RunLengthDecode filter} if }
  ifelse exch readstring pop
  dup 0 3 index getinterval /rbmap xdef
  dup 2 index dup getinterval /gbmap xdef
  1 index dup 2 mul exch getinterval /bbmap xdef pop pop}bdef
/it {gs np dtri aload pop moveto lineto lineto cp c
  cols rows 8 compute_transform 
  rbmap gbmap bbmap true 3 colorimage gr}bdef
/il {newpath moveto lineto stroke}bdef
currentdict end def
%%EndProlog

%%BeginSetup
MathWorks begin

0 cap

end
%%EndSetup

%%Page: 1 1
%%BeginPageSetup
%%PageBoundingBox:    43   133   568   658
MathWorks begin
bpage
%%EndPageSetup

%%BeginObject: obj1
bplot

/dpi2point 12 def
portraitMode 0516 7896 csm

    0     0  6300  6300 rc
87 dict begin %Colortable dictionary
/c0 { 0.000000 0.000000 0.000000 sr} bdef
/c1 { 1.000000 1.000000 1.000000 sr} bdef
/c2 { 0.900000 0.000000 0.000000 sr} bdef
/c3 { 0.000000 0.820000 0.000000 sr} bdef
/c4 { 0.000000 0.000000 0.800000 sr} bdef
/c5 { 0.910000 0.820000 0.320000 sr} bdef
/c6 { 1.000000 0.260000 0.820000 sr} bdef
/c7 { 0.000000 0.820000 0.820000 sr} bdef
c0
1 j
1 sg
   0    0 6301 6301 rf
6 w
0 2149 4883 0 0 -2149 819 2622 4 MP
PP
-4883 0 0 2149 4883 0 0 -2149 819 2622 5 MP stroke
4 w
DO
SO
6 w
0 sg
 819  473 mt 5702  473 L
 819 2622 mt 5702 2622 L
5702 2622 mt 5702  473 L
 819 2622 mt  819  473 L
 819 2622 mt 5702 2622 L
 819 2622 mt  819  473 L
1337 2622 mt 1337 2573 L
1337  473 mt 1337  521 L
%%IncludeResource: font Helvetica
/Helvetica /WindowsLatin1Encoding 120 FMSR

1271 2767 mt 
(20) s
1882 2622 mt 1882 2573 L
1882  473 mt 1882  521 L
1816 2767 mt 
(40) s
2428 2622 mt 2428 2573 L
2428  473 mt 2428  521 L
2362 2767 mt 
(60) s
2974 2622 mt 2974 2573 L
2974  473 mt 2974  521 L
2908 2767 mt 
(80) s
3519 2622 mt 3519 2573 L
3519  473 mt 3519  521 L
3419 2767 mt 
(100) s
4065 2622 mt 4065 2573 L
4065  473 mt 4065  521 L
3965 2767 mt 
(120) s
4610 2622 mt 4610 2573 L
4610  473 mt 4610  521 L
4510 2767 mt 
(140) s
5156 2622 mt 5156 2573 L
5156  473 mt 5156  521 L
5056 2767 mt 
(160) s
5702 2622 mt 5702 2573 L
5702  473 mt 5702  521 L
5602 2767 mt 
(180) s
 819 2622 mt  867 2622 L
5702 2622 mt 5653 2622 L
 718 2666 mt 
(0) s
 819 2296 mt  867 2296 L
5702 2296 mt 5653 2296 L
 718 2340 mt 
(5) s
 819 1970 mt  867 1970 L
5702 1970 mt 5653 1970 L
 651 2014 mt 
(10) s
 819 1645 mt  867 1645 L
5702 1645 mt 5653 1645 L
 651 1689 mt 
(15) s
 819 1319 mt  867 1319 L
5702 1319 mt 5653 1319 L
 651 1363 mt 
(20) s
 819  993 mt  867  993 L
5702  993 mt 5653  993 L
 651 1037 mt 
(25) s
 819  668 mt  867  668 L
5702  668 mt 5653  668 L
 651  712 mt 
(30) s
 819  473 mt 5702  473 L
 819 2622 mt 5702 2622 L
5702 2622 mt 5702  473 L
 819 2622 mt  819  473 L
gs 819 473 4884 2150 rc
18 w
28 -130 27 -66 27 -65 28 391 27 -456 27 0 27 -195 28 -196 
27 66 27 130 28 -130 27 65 27 130 27 -195 28 130 27 -130 
27 -66 28 0 27 0 27 0 27 0 28 0 27 0 27 0 
27 0 28 0 27 131 27 130 28 0 27 -130 27 65 27 130 
28 -260 27 -66 27 66 28 0 27 130 27 0 27 195 28 261 
27 -456 27 0 28 -65 27 325 27 0 27 196 28 -261 27 65 
27 -65 27 -195 28 -65 27 -65 27 -66 28 0 27 0 27 131 
27 -131 28 66 27 0 27 65 28 -131 27 66 27 0 27 -66 
28 0 27 0 27 131 27 -131 28 66 27 0 27 0 28 -66 
27 0 27 0 27 0 28 66 27 65 27 130 28 391 27 -196 
27 -260 27 0 28 195 27 196 27 -196 28 -195 27 -130 27 0 
27 -66 28 0 27 0 27 66 27 0 28 -66 27 0 27 0 
28 0 27 131 27 -131 27 0 28 0 27 0 27 0 28 0 
27 66 27 0 27 -66 28 0 27 0 27 0 28 66 27 130 
27 -196 27 0 28 0 27 66 27 65 27 130 28 -195 27 195 
27 260 28 -65 27 391 27 -65 27 -326 28 -325 27 -65 27 195 
28 65 27 326 27 -65 27 260 28 0 27 391 27 -65 27 65 
28 -261 27 196 27 65 28 65 27 65 27 65 27 -130 28 65 
27 -65 27 65 28 0 27 -65 27 65 27 0 28 0 27 0 
27 -65 28 0 27 0 27 195 27 -195 28 0 27 65 27 0 
27 130 28 -130 27 0 27 -65 28 195 27 -130 27 -65 27 0 
28 65 27 0 27 65 28 -65 27 0 27 -65 27 0 28 0 
27 -261 27 -521 27 -260 819 2361 180 MP stroke
/c8 { 1.000000 0.000000 0.000000 sr} bdef
c8
28 -65 27 130 27 -65 28 -261 27 456 27 -65 27 -65 28 130 
27 65 27 66 28 65 27 65 27 -65 27 65 28 -65 27 130 
27 130 28 -130 27 0 27 0 27 130 28 -195 27 130 27 -65 
27 -65 28 65 27 -65 27 -391 28 0 27 195 27 -260 27 130 
28 -65 27 261 27 -66 28 66 27 -66 27 -195 27 -456 28 65 
27 131 27 -66 28 391 27 -195 27 -65 27 -196 28 0 27 65 
27 131 27 456 28 130 27 -65 27 195 28 65 27 -130 27 -65 
27 0 28 65 27 -130 27 130 28 65 27 -130 27 260 27 -260 
28 -130 27 195 27 -130 27 325 28 -325 27 260 27 -195 28 0 
27 195 27 -195 27 65 28 -130 27 195 27 -195 28 -717 27 261 
27 -261 27 65 28 0 27 -195 27 195 28 326 27 -260 27 -391 
27 260 28 65 27 66 27 -261 27 -260 28 0 27 65 27 -65 
28 -66 27 131 27 -65 27 0 28 65 27 -131 27 0 28 0 
27 0 27 0 27 66 28 0 27 0 27 -66 28 66 27 -66 
27 66 27 -66 28 66 27 0 27 -66 27 196 28 651 27 0 
27 -130 28 -196 27 -130 27 65 27 326 28 65 27 0 27 -195 
28 -196 27 -195 27 195 27 -260 28 -130 27 -66 27 0 27 0 
28 196 27 -130 27 -66 28 0 27 0 27 0 27 0 28 0 
27 0 27 0 28 0 27 0 27 0 27 0 28 0 27 0 
27 0 28 0 27 0 27 0 27 0 28 0 27 0 27 0 
27 0 28 0 27 0 27 0 28 0 27 0 27 0 27 0 
28 0 27 0 27 0 28 0 27 0 27 0 27 0 28 0 
27 0 27 0 27 0 819 2622 180 MP stroke
/c9 { 0.000000 0.000000 1.000000 sr} bdef
c9
28 0 27 0 27 131 28 0 27 0 27 -65 27 195 28 65 
27 -130 27 -130 28 65 27 -131 27 0 27 0 28 0 27 0 
27 66 28 65 27 -65 27 -66 27 0 28 66 27 0 27 -66 
27 66 28 130 27 -130 27 130 28 0 27 130 27 0 27 65 
28 0 27 -195 27 0 28 65 27 -65 27 65 27 326 28 -196 
27 196 27 0 28 -326 27 -130 27 130 27 0 28 326 27 -131 
27 -130 27 -260 28 0 27 0 27 -66 28 0 27 66 27 -66 
27 66 28 0 27 0 27 -66 28 0 27 0 27 0 27 66 
28 130 27 -196 27 0 27 0 28 131 27 -65 27 -66 28 66 
27 -66 27 66 27 -66 28 66 27 -66 27 0 28 196 27 130 
27 391 27 -65 28 -261 27 0 27 130 28 -260 27 456 27 325 
27 -130 28 -130 27 -65 27 391 27 65 28 195 27 -130 27 65 
28 65 27 -326 27 196 27 65 28 0 27 0 27 65 28 -65 
27 -65 27 65 27 -65 28 0 27 0 27 65 28 -130 27 0 
27 65 27 130 28 -130 27 -65 27 65 27 -391 28 -456 27 -195 
27 -65 28 195 27 -260 27 0 27 0 28 325 27 130 27 -130 
28 196 27 -131 27 0 27 -65 28 130 27 -260 27 -65 27 -65 
28 0 27 65 27 -65 28 -131 27 0 27 0 27 0 28 0 
27 0 27 0 28 0 27 0 27 0 27 0 28 0 27 0 
27 0 28 0 27 0 27 0 27 0 28 0 27 0 27 0 
27 0 28 0 27 0 27 0 28 0 27 0 27 0 27 0 
28 0 27 0 27 0 28 0 27 0 27 0 27 0 28 0 
27 0 27 0 27 0 819 2622 180 MP stroke
gr

18 w
c9
0 sg
%%IncludeResource: font Helvetica
/Helvetica /WindowsLatin1Encoding 168 FMSR

2956 2945 mt 
(Itera\347\343o) s
 559 1982 mt  -90 rotate
(Quantidade) s
90 rotate
%%IncludeResource: font Helvetica
/Helvetica /WindowsLatin1Encoding 120 FMSR

 802 2665 mt 
( ) s
5686  515 mt 
( ) s
6 w
1 sg
0 2149 4883 0 0 -2149 819 5607 4 MP
PP
-4883 0 0 2149 4883 0 0 -2149 819 5607 5 MP stroke
4 w
DO
SO
6 w
0 sg
 819 3458 mt 5702 3458 L
 819 5607 mt 5702 5607 L
5702 5607 mt 5702 3458 L
 819 5607 mt  819 3458 L
 819 5607 mt 5702 5607 L
 819 5607 mt  819 3458 L
1337 5607 mt 1337 5558 L
1337 3458 mt 1337 3506 L
1271 5752 mt 
(20) s
1882 5607 mt 1882 5558 L
1882 3458 mt 1882 3506 L
1816 5752 mt 
(40) s
2428 5607 mt 2428 5558 L
2428 3458 mt 2428 3506 L
2362 5752 mt 
(60) s
2974 5607 mt 2974 5558 L
2974 3458 mt 2974 3506 L
2908 5752 mt 
(80) s
3519 5607 mt 3519 5558 L
3519 3458 mt 3519 3506 L
3419 5752 mt 
(100) s
4065 5607 mt 4065 5558 L
4065 3458 mt 4065 3506 L
3965 5752 mt 
(120) s
4610 5607 mt 4610 5558 L
4610 3458 mt 4610 3506 L
4510 5752 mt 
(140) s
5156 5607 mt 5156 5558 L
5156 3458 mt 5156 3506 L
5056 5752 mt 
(160) s
5702 5607 mt 5702 5558 L
5702 3458 mt 5702 3506 L
5602 5752 mt 
(180) s
 819 5607 mt  867 5607 L
5702 5607 mt 5653 5607 L
 718 5651 mt 
(0) s
 819 5281 mt  867 5281 L
5702 5281 mt 5653 5281 L
 718 5325 mt 
(5) s
 819 4955 mt  867 4955 L
5702 4955 mt 5653 4955 L
 651 4999 mt 
(10) s
 819 4630 mt  867 4630 L
5702 4630 mt 5653 4630 L
 651 4674 mt 
(15) s
 819 4304 mt  867 4304 L
5702 4304 mt 5653 4304 L
 651 4348 mt 
(20) s
 819 3978 mt  867 3978 L
5702 3978 mt 5653 3978 L
 651 4022 mt 
(25) s
 819 3653 mt  867 3653 L
5702 3653 mt 5653 3653 L
 651 3697 mt 
(30) s
 819 3458 mt 5702 3458 L
 819 5607 mt 5702 5607 L
5702 5607 mt 5702 3458 L
 819 5607 mt  819 3458 L
gs 819 3458 4884 2150 rc
18 w
/c10 { 0.000000 1.000000 0.000000 sr} bdef
c10
28 -65 27 0 27 130 28 -130 27 195 27 -130 27 0 28 -195 
27 65 27 130 28 -65 27 65 27 0 27 -65 28 -65 27 -391 
27 -521 28 -195 27 -66 27 0 27 0 28 0 27 0 27 66 
27 65 28 -65 27 0 27 -66 28 0 27 0 27 0 27 66 
28 65 27 -131 27 0 28 131 27 0 27 -131 27 0 28 66 
27 0 27 0 28 65 27 -65 27 130 27 -196 28 0 27 131 
27 -131 27 131 28 -65 27 0 27 65 28 0 27 -65 27 0 
27 -66 28 66 27 390 27 -195 28 -195 27 0 27 390 27 -260 
28 0 27 -130 27 0 27 65 28 -131 27 66 27 130 28 0 
27 65 27 130 27 0 28 130 27 66 27 -131 28 -130 27 456 
27 260 27 0 28 -65 27 0 27 0 28 -130 27 261 27 130 
27 -65 28 -131 27 0 27 -195 27 0 28 -65 27 -391 27 -195 
28 -130 27 325 27 65 27 -65 28 261 27 -131 27 -260 28 -130 
27 -65 27 0 27 -66 28 66 27 0 27 0 28 -66 27 66 
27 65 27 0 28 -131 27 0 27 66 27 130 28 260 27 -390 
27 0 28 -66 27 0 27 0 27 66 28 -66 27 131 27 65 
28 -65 27 -65 27 -66 27 66 28 -66 27 131 27 -65 27 65 
28 65 27 391 27 -196 28 -130 27 456 27 65 27 -326 28 -195 
27 -65 27 130 28 195 27 66 27 -196 27 -195 28 -65 27 325 
27 391 28 130 27 -260 27 325 27 -195 28 195 27 261 27 65 
27 130 28 -130 27 0 27 -65 28 195 27 -130 27 -65 27 0 
28 65 27 0 27 65 28 -65 27 0 27 -65 27 0 28 0 
27 -261 27 -521 27 -260 819 5346 180 MP stroke
c8
28 -66 27 66 27 -66 28 196 27 -196 27 66 27 -66 28 131 
27 -65 27 -66 28 66 27 -66 27 131 27 -131 28 131 27 325 
27 652 28 130 27 65 27 -130 27 195 28 -65 27 130 27 -195 
27 -130 28 325 27 -130 27 0 28 0 27 65 27 -65 27 195 
28 -390 27 65 27 65 28 -521 27 -521 27 -130 27 -66 28 66 
27 -66 27 0 28 131 27 -65 27 -66 27 131 28 -131 27 66 
27 -66 27 0 28 66 27 0 27 130 28 -130 27 0 27 -66 
27 326 28 456 27 -391 27 0 28 326 27 -196 27 -65 27 131 
28 195 27 326 27 130 27 -65 28 -652 27 391 27 -130 28 -195 
27 195 27 -326 27 -260 28 65 27 195 27 0 28 -260 27 -65 
27 0 27 65 28 -65 27 -65 27 0 28 65 27 -131 27 0 
27 196 28 65 27 -65 27 456 27 -261 28 196 27 0 27 390 
28 -130 27 -260 27 0 27 0 28 -326 27 0 27 260 28 131 
27 65 27 -261 27 391 28 -195 27 65 27 -196 28 -260 27 -65 
27 -130 27 65 28 -131 27 261 27 130 27 65 28 -390 27 -66 
27 66 28 -66 27 0 27 196 27 0 28 586 27 130 27 65 
28 -195 27 -130 27 390 27 66 28 65 27 0 27 -65 27 -261 
28 195 27 -260 27 195 28 -195 27 -391 27 0 27 261 28 195 
27 65 27 -130 28 0 27 -65 27 260 27 196 28 -131 27 -195 
27 -456 28 -130 27 195 27 -130 27 65 28 -195 27 -130 27 -66 
27 0 28 0 27 0 27 0 28 0 27 0 27 0 27 0 
28 0 27 0 27 0 28 0 27 0 27 0 27 0 28 0 
27 0 27 0 27 0 819 5607 180 MP stroke
0.6 sg
28 -65 27 0 27 -66 28 66 27 0 27 -66 27 0 28 66 
27 0 27 0 28 0 27 0 27 -66 27 66 28 0 27 65 
27 0 28 0 27 -65 27 65 27 -65 28 -66 27 0 27 0 
27 66 28 -66 27 66 27 -66 28 0 27 131 27 -131 27 66 
28 0 27 65 27 -65 28 521 27 521 27 130 27 130 28 0 
27 -65 27 -65 28 -196 27 131 27 0 27 65 28 195 27 -195 
27 130 27 -130 28 65 27 -130 27 -131 28 196 27 0 27 65 
27 -326 28 -390 27 -131 27 326 28 -195 27 130 27 -65 27 -131 
28 -195 27 -195 27 -131 27 196 28 651 27 -260 27 -261 28 195 
27 -130 27 65 27 261 28 -196 27 -65 27 65 28 261 27 -195 
27 -391 27 -65 28 65 27 65 27 130 28 -65 27 -65 27 -195 
27 -66 28 0 27 66 27 -66 27 66 28 0 27 325 27 -195 
28 260 27 -130 27 -65 27 130 28 130 27 0 27 66 28 -66 
27 0 27 326 27 -391 28 131 27 -66 27 196 28 325 27 66 
27 0 27 0 28 195 27 -261 27 -130 27 -260 28 130 27 456 
27 0 28 65 27 0 27 -195 27 -66 28 -455 27 -196 27 -260 
28 325 27 196 27 -196 27 -195 28 0 27 -65 27 0 27 195 
28 -325 27 0 27 -66 28 261 27 0 27 0 27 -65 28 65 
27 -65 27 65 28 -195 27 -66 27 0 27 0 28 196 27 -130 
27 0 28 0 27 65 27 0 27 -65 28 0 27 -66 27 0 
27 0 28 0 27 0 27 0 28 0 27 0 27 0 27 0 
28 0 27 0 27 0 28 0 27 0 27 0 27 0 28 0 
27 0 27 0 27 0 819 5607 180 MP stroke
gr

18 w
0.6 sg
0 sg
%%IncludeResource: font Helvetica
/Helvetica /WindowsLatin1Encoding 168 FMSR

2956 5930 mt 
(Itera\347\343o) s
 559 4967 mt  -90 rotate
(Quantidade) s
90 rotate
%%IncludeResource: font Helvetica
/Helvetica /WindowsLatin1Encoding 120 FMSR

 802 5650 mt 
( ) s
5686 3500 mt 
( ) s
6 w
DA
0 5265 1364 342 2 MP stroke
1355  238 mt 
(t) s
%%IncludeResource: font Helvetica
/Helvetica /WindowsLatin1Encoding 96 FMSR

1388  298 mt 
(1) s
0 5265 1910 342 2 MP stroke
%%IncludeResource: font Helvetica
/Helvetica /WindowsLatin1Encoding 120 FMSR

1901  238 mt 
(t) s
%%IncludeResource: font Helvetica
/Helvetica /WindowsLatin1Encoding 96 FMSR

1934  298 mt 
(2) s
0 5265 2455 342 2 MP stroke
%%IncludeResource: font Helvetica
/Helvetica /WindowsLatin1Encoding 120 FMSR

2446  238 mt 
(t) s
%%IncludeResource: font Helvetica
/Helvetica /WindowsLatin1Encoding 96 FMSR

2479  298 mt 
(3) s
0 5265 3001 342 2 MP stroke
%%IncludeResource: font Helvetica
/Helvetica /WindowsLatin1Encoding 120 FMSR

2992  238 mt 
(t) s
%%IncludeResource: font Helvetica
/Helvetica /WindowsLatin1Encoding 96 FMSR

3025  298 mt 
(4) s
0 5265 3546 342 2 MP stroke
%%IncludeResource: font Helvetica
/Helvetica /WindowsLatin1Encoding 120 FMSR

3537  238 mt 
(t) s
%%IncludeResource: font Helvetica
/Helvetica /WindowsLatin1Encoding 96 FMSR

3570  298 mt 
(5) s
0 5265 4092 342 2 MP stroke
%%IncludeResource: font Helvetica
/Helvetica /WindowsLatin1Encoding 120 FMSR

4083  238 mt 
(t) s
%%IncludeResource: font Helvetica
/Helvetica /WindowsLatin1Encoding 96 FMSR

4116  298 mt 
(6) s
0 5265 4637 342 2 MP stroke
%%IncludeResource: font Helvetica
/Helvetica /WindowsLatin1Encoding 120 FMSR

4628  238 mt 
(t) s
%%IncludeResource: font Helvetica
/Helvetica /WindowsLatin1Encoding 96 FMSR

4661  298 mt 
(7) s
0 5265 5183 342 2 MP stroke
%%IncludeResource: font Helvetica
/Helvetica /WindowsLatin1Encoding 120 FMSR

5174  238 mt 
(t) s
%%IncludeResource: font Helvetica
/Helvetica /WindowsLatin1Encoding 96 FMSR

5207  298 mt 
(8) s
%%IncludeResource: font Helvetica
/Helvetica /WindowsLatin1Encoding 168 FMSR

 268  634 mt 
(a\)) s
 268 3595 mt 
(b\)) s
SO
1 sg
0 480 1033 0 0 -480 4610 1013 4 MP
PP
-1033 0 0 480 1033 0 0 -480 4610 1013 5 MP stroke
4 w
DO
SO
6 w
0 sg
4610  533 mt 5643  533 L
4610 1013 mt 5643 1013 L
5643 1013 mt 5643  533 L
4610 1013 mt 4610  533 L
4610 1013 mt 5643 1013 L
4610 1013 mt 4610  533 L
4610  533 mt 5643  533 L
4610 1013 mt 5643 1013 L
5643 1013 mt 5643  533 L
4610 1013 mt 4610  533 L
%%IncludeResource: font Helvetica
/Helvetica /WindowsLatin1Encoding 120 FMSR

5082  668 mt 
(Circular) s
gs 4610 533 1034 481 rc
18 w
362 0 4682 625 2 MP stroke
gr

18 w
5082  816 mt 
(Alongado) s
gs 4610 533 1034 481 rc
c8
362 0 4682 773 2 MP stroke
gr

c8
0 sg
5082  964 mt 
(Triangular) s
gs 4610 533 1034 481 rc
c9
362 0 4682 920 2 MP stroke
6 w
gr

6 w
c9
1 sg
0 480 1012 0 0 -480 4631 3998 4 MP
PP
-1012 0 0 480 1012 0 0 -480 4631 3998 5 MP stroke
4 w
DO
SO
6 w
0 sg
4631 3518 mt 5643 3518 L
4631 3998 mt 5643 3998 L
5643 3998 mt 5643 3518 L
4631 3998 mt 4631 3518 L
4631 3998 mt 5643 3998 L
4631 3998 mt 4631 3518 L
4631 3518 mt 5643 3518 L
4631 3998 mt 5643 3998 L
5643 3998 mt 5643 3518 L
4631 3998 mt 4631 3518 L
5097 3653 mt 
(Verde) s
gs 4631 3518 1013 481 rc
18 w
c10
358 0 4702 3610 2 MP stroke
gr

18 w
c10
0 sg
5097 3801 mt 
(Vermelho) s
gs 4631 3518 1013 481 rc
c8
358 0 4702 3758 2 MP stroke
gr

c8
0 sg
5097 3949 mt 
(Cinza) s
gs 4631 3518 1013 481 rc
0.6 sg
358 0 4702 3905 2 MP stroke
6 w
gr

6 w
0.6 sg

end %%Color Dict

eplot
%%EndObject

epage
end

showpage

%%Trailer
%%EOF
