%!PS-Adobe-3.0 EPSF-3.0
%%Creator: MATLAB, The Mathworks, Inc. Version 7.8.0.347 (R2009a). Operating System: Microsoft Windows Vista.
%%Title: C:\Users\gomes\Documents\University\TCC\gitRepo\paper\Dados e Figuras\untitled.eps
%%CreationDate: 09/10/2017  09:56:33
%%DocumentNeededFonts: Helvetica
%%DocumentProcessColors: Cyan Magenta Yellow Black
%%LanguageLevel: 2
%%Pages: 1
%%BoundingBox:    43   133   568   658
%%EndComments

%%BeginProlog
% MathWorks dictionary
/MathWorks 160 dict begin
% definition operators
/bdef {bind def} bind def
/ldef {load def} bind def
/xdef {exch def} bdef
/xstore {exch store} bdef
% operator abbreviations
/c  /clip ldef
/cc /concat ldef
/cp /closepath ldef
/gr /grestore ldef
/gs /gsave ldef
/mt /moveto ldef
/np /newpath ldef
/cm /currentmatrix ldef
/sm /setmatrix ldef
/rm /rmoveto ldef
/rl /rlineto ldef
/s {show newpath} bdef
/sc {setcmykcolor} bdef
/sr /setrgbcolor ldef
/sg /setgray ldef
/w /setlinewidth ldef
/j /setlinejoin ldef
/cap /setlinecap ldef
/rc {rectclip} bdef
/rf {rectfill} bdef
% page state control
/pgsv () def
/bpage {/pgsv save def} bdef
/epage {pgsv restore} bdef
/bplot /gsave ldef
/eplot {stroke grestore} bdef
% orientation switch
/portraitMode 0 def /landscapeMode 1 def /rotateMode 2 def
% coordinate system mappings
/dpi2point 0 def
% font control
/FontSize 0 def
/FMS {/FontSize xstore findfont [FontSize 0 0 FontSize neg 0 0]
  makefont setfont} bdef
/ISOLatin1Encoding where {pop /WindowsLatin1Encoding 256 array bdef
ISOLatin1Encoding WindowsLatin1Encoding copy pop
/.notdef/.notdef/quotesinglbase/florin/quotedblbase/ellipsis/dagger
/daggerdbl/circumflex/perthousand/Scaron/guilsinglleft/OE/.notdef/.notdef
/.notdef/.notdef/quoteleft/quoteright/quotedblleft/quotedblright/bullet
/endash/emdash/tilde/trademark/scaron/guilsinglright/oe/.notdef/.notdef
/Ydieresis WindowsLatin1Encoding 128 32 getinterval astore pop}
{/WindowsLatin1Encoding StandardEncoding bdef} ifelse
/reencode {exch dup where {pop load} {pop StandardEncoding} ifelse
  exch dup 3 1 roll findfont dup length dict begin
  { 1 index /FID ne {def}{pop pop} ifelse } forall
  /Encoding exch def currentdict end definefont pop} bdef
/isroman {findfont /CharStrings get /Agrave known} bdef
/FMSR {3 1 roll 1 index dup isroman {reencode} {pop pop} ifelse
  exch FMS} bdef
/csm {1 dpi2point div -1 dpi2point div scale neg translate
 dup landscapeMode eq {pop -90 rotate}
  {rotateMode eq {90 rotate} if} ifelse} bdef
% line types: solid, dotted, dashed, dotdash
/SO { [] 0 setdash } bdef
/DO { [.5 dpi2point mul 4 dpi2point mul] 0 setdash } bdef
/DA { [6 dpi2point mul] 0 setdash } bdef
/DD { [.5 dpi2point mul 4 dpi2point mul 6 dpi2point mul 4
  dpi2point mul] 0 setdash } bdef
% macros for lines and objects
/L {lineto stroke} bdef
/MP {3 1 roll moveto 1 sub {rlineto} repeat} bdef
/AP {{rlineto} repeat} bdef
/PDlw -1 def
/W {/PDlw currentlinewidth def setlinewidth} def
/PP {closepath eofill} bdef
/DP {closepath stroke} bdef
/MR {4 -2 roll moveto dup  0 exch rlineto exch 0 rlineto
  neg 0 exch rlineto closepath} bdef
/FR {MR stroke} bdef
/PR {MR fill} bdef
/L1i {{currentfile picstr readhexstring pop} image} bdef
/tMatrix matrix def
/MakeOval {newpath tMatrix currentmatrix pop translate scale
0 0 1 0 360 arc tMatrix setmatrix} bdef
/FO {MakeOval stroke} bdef
/PO {MakeOval fill} bdef
/PD {currentlinewidth 2 div 0 360 arc fill
   PDlw -1 eq not {PDlw w /PDlw -1 def} if} def
/FA {newpath tMatrix currentmatrix pop translate scale
  0 0 1 5 -2 roll arc tMatrix setmatrix stroke} bdef
/PA {newpath tMatrix currentmatrix pop	translate 0 0 moveto scale
  0 0 1 5 -2 roll arc closepath tMatrix setmatrix fill} bdef
/FAn {newpath tMatrix currentmatrix pop translate scale
  0 0 1 5 -2 roll arcn tMatrix setmatrix stroke} bdef
/PAn {newpath tMatrix currentmatrix pop translate 0 0 moveto scale
  0 0 1 5 -2 roll arcn closepath tMatrix setmatrix fill} bdef
/vradius 0 def /hradius 0 def /lry 0 def
/lrx 0 def /uly 0 def /ulx 0 def /rad 0 def
/MRR {/vradius xdef /hradius xdef /lry xdef /lrx xdef /uly xdef
  /ulx xdef newpath tMatrix currentmatrix pop ulx hradius add uly
  vradius add translate hradius vradius scale 0 0 1 180 270 arc 
  tMatrix setmatrix lrx hradius sub uly vradius add translate
  hradius vradius scale 0 0 1 270 360 arc tMatrix setmatrix
  lrx hradius sub lry vradius sub translate hradius vradius scale
  0 0 1 0 90 arc tMatrix setmatrix ulx hradius add lry vradius sub
  translate hradius vradius scale 0 0 1 90 180 arc tMatrix setmatrix
  closepath} bdef
/FRR {MRR stroke } bdef
/PRR {MRR fill } bdef
/MlrRR {/lry xdef /lrx xdef /uly xdef /ulx xdef /rad lry uly sub 2 div def
  newpath tMatrix currentmatrix pop ulx rad add uly rad add translate
  rad rad scale 0 0 1 90 270 arc tMatrix setmatrix lrx rad sub lry rad
  sub translate rad rad scale 0 0 1 270 90 arc tMatrix setmatrix
  closepath} bdef
/FlrRR {MlrRR stroke } bdef
/PlrRR {MlrRR fill } bdef
/MtbRR {/lry xdef /lrx xdef /uly xdef /ulx xdef /rad lrx ulx sub 2 div def
  newpath tMatrix currentmatrix pop ulx rad add uly rad add translate
  rad rad scale 0 0 1 180 360 arc tMatrix setmatrix lrx rad sub lry rad
  sub translate rad rad scale 0 0 1 0 180 arc tMatrix setmatrix
  closepath} bdef
/FtbRR {MtbRR stroke } bdef
/PtbRR {MtbRR fill } bdef
/stri 6 array def /dtri 6 array def
/smat 6 array def /dmat 6 array def
/tmat1 6 array def /tmat2 6 array def /dif 3 array def
/asub {/ind2 exch def /ind1 exch def dup dup
  ind1 get exch ind2 get sub exch } bdef
/tri_to_matrix {
  2 0 asub 3 1 asub 4 0 asub 5 1 asub
  dup 0 get exch 1 get 7 -1 roll astore } bdef
/compute_transform {
  dmat dtri tri_to_matrix tmat1 invertmatrix 
  smat stri tri_to_matrix tmat2 concatmatrix } bdef
/ds {stri astore pop} bdef
/dt {dtri astore pop} bdef
/db {2 copy /cols xdef /rows xdef mul dup 3 mul string
  currentfile 
  3 index 0 eq {/ASCIIHexDecode filter}
  {/ASCII85Decode filter 3 index 2 eq {/RunLengthDecode filter} if }
  ifelse exch readstring pop
  dup 0 3 index getinterval /rbmap xdef
  dup 2 index dup getinterval /gbmap xdef
  1 index dup 2 mul exch getinterval /bbmap xdef pop pop}bdef
/it {gs np dtri aload pop moveto lineto lineto cp c
  cols rows 8 compute_transform 
  rbmap gbmap bbmap true 3 colorimage gr}bdef
/il {newpath moveto lineto stroke}bdef
currentdict end def
%%EndProlog

%%BeginSetup
MathWorks begin

0 cap

end
%%EndSetup

%%Page: 1 1
%%BeginPageSetup
%%PageBoundingBox:    43   133   568   658
MathWorks begin
bpage
%%EndPageSetup

%%BeginObject: obj1
bplot

/dpi2point 12 def
portraitMode 0516 7896 csm

    0     0  6300  6300 rc
87 dict begin %Colortable dictionary
/c0 { 0.000000 0.000000 0.000000 sr} bdef
/c1 { 1.000000 1.000000 1.000000 sr} bdef
/c2 { 0.900000 0.000000 0.000000 sr} bdef
/c3 { 0.000000 0.820000 0.000000 sr} bdef
/c4 { 0.000000 0.000000 0.800000 sr} bdef
/c5 { 0.910000 0.820000 0.320000 sr} bdef
/c6 { 1.000000 0.260000 0.820000 sr} bdef
/c7 { 0.000000 0.820000 0.820000 sr} bdef
c0
1 j
1 sg
   0    0 6301 6301 rf
6 w
0 2149 4883 0 0 -2149 819 2622 4 MP
PP
-4883 0 0 2149 4883 0 0 -2149 819 2622 5 MP stroke
4 w
DO
SO
6 w
0 sg
 819  473 mt 5702  473 L
 819 2622 mt 5702 2622 L
5702 2622 mt 5702  473 L
 819 2622 mt  819  473 L
 819 2622 mt 5702 2622 L
 819 2622 mt  819  473 L
1312 2622 mt 1312 2573 L
1312  473 mt 1312  521 L
%%IncludeResource: font Helvetica
/Helvetica /WindowsLatin1Encoding 120 FMSR

1246 2767 mt 
(10) s
1861 2622 mt 1861 2573 L
1861  473 mt 1861  521 L
1795 2767 mt 
(20) s
2410 2622 mt 2410 2573 L
2410  473 mt 2410  521 L
2344 2767 mt 
(30) s
2958 2622 mt 2958 2573 L
2958  473 mt 2958  521 L
2892 2767 mt 
(40) s
3507 2622 mt 3507 2573 L
3507  473 mt 3507  521 L
3441 2767 mt 
(50) s
4056 2622 mt 4056 2573 L
4056  473 mt 4056  521 L
3990 2767 mt 
(60) s
4604 2622 mt 4604 2573 L
4604  473 mt 4604  521 L
4538 2767 mt 
(70) s
5153 2622 mt 5153 2573 L
5153  473 mt 5153  521 L
5087 2767 mt 
(80) s
5702 2622 mt 5702 2573 L
5702  473 mt 5702  521 L
5636 2767 mt 
(90) s
 819 2622 mt  867 2622 L
5702 2622 mt 5653 2622 L
 718 2666 mt 
(0) s
 819 2286 mt  867 2286 L
5702 2286 mt 5653 2286 L
 718 2330 mt 
(5) s
 819 1950 mt  867 1950 L
5702 1950 mt 5653 1950 L
 651 1994 mt 
(10) s
 819 1614 mt  867 1614 L
5702 1614 mt 5653 1614 L
 651 1658 mt 
(15) s
 819 1278 mt  867 1278 L
5702 1278 mt 5653 1278 L
 651 1322 mt 
(20) s
 819  943 mt  867  943 L
5702  943 mt 5653  943 L
 651  987 mt 
(25) s
 819  607 mt  867  607 L
5702  607 mt 5653  607 L
 651  651 mt 
(30) s
 819  473 mt 5702  473 L
 819 2622 mt 5702 2622 L
5702 2622 mt 5702  473 L
 819 2622 mt  819  473 L
gs 819 473 4884 2150 rc
18 w
55 470 55 0 55 0 55 335 55 -201 55 -403 55 67 54 202 
55 -202 55 -67 55 67 55 0 55 -268 55 134 54 134 55 -67 
55 0 55 -67 55 -269 55 67 55 -335 55 201 54 134 55 -201 
55 0 55 -134 55 0 55 0 55 0 54 -68 55 0 55 0 
55 0 55 0 55 68 55 -68 55 68 54 67 55 -67 55 67 
55 -135 55 0 55 0 55 135 54 -67 55 134 55 67 55 -134 
55 -135 55 0 55 135 54 -67 55 67 55 -135 55 135 55 -67 
55 0 55 67 55 -67 54 67 55 0 55 134 55 403 55 67 
55 202 55 -135 54 269 55 -201 55 268 55 134 55 202 55 -134 
55 134 55 0 54 -67 55 67 55 -67 55 -67 55 67 55 0 
55 0 54 -67 55 134 55 -134 55 67 55 0 55 -336 55 -537 
54 -269 819 2353 90 MP stroke
/c8 { 1.000000 0.000000 0.000000 sr} bdef
c8
55 67 55 -268 55 134 55 -67 55 -67 55 134 55 -134 54 -68 
55 0 55 0 55 0 55 202 55 0 55 -67 54 67 55 67 
55 67 55 -201 55 268 55 -134 55 537 55 -201 54 67 55 202 
55 268 55 -268 55 335 55 -67 55 67 54 202 55 0 55 -67 
55 -68 55 0 55 -67 55 202 55 -135 54 0 55 -134 55 -201 
55 -135 55 -67 55 -67 55 -134 54 -269 55 0 55 0 55 0 
55 -201 55 -68 55 0 54 135 55 0 55 -67 55 -68 55 135 
55 -67 55 67 55 67 54 134 55 336 55 -67 55 -269 55 135 
55 0 55 67 54 -202 55 135 55 -269 55 -67 55 -135 55 0 
55 0 55 0 54 0 55 0 55 0 55 0 55 0 55 0 
55 0 54 0 55 0 55 0 55 0 55 0 55 0 55 0 
54 0 819 2622 90 MP stroke
/c9 { 0.000000 0.000000 1.000000 sr} bdef
c9
55 -470 55 202 55 -336 55 -134 55 268 55 202 55 268 54 -201 
55 0 55 67 55 0 55 -201 55 201 55 -67 54 -202 55 0 
55 68 55 134 55 0 55 134 55 -201 55 -135 54 -67 55 -67 
55 67 55 67 55 -134 55 -134 55 0 54 -135 55 0 55 68 
55 0 55 0 55 0 55 -68 55 68 54 0 55 134 55 67 
55 403 55 0 55 0 55 67 54 269 55 -134 55 0 55 67 
55 335 55 68 55 -68 54 -67 55 -134 55 201 55 0 55 -67 
55 135 55 -135 55 135 54 -403 55 -336 55 0 55 -202 55 -268 
55 -67 55 0 54 0 55 0 55 0 55 -68 55 0 55 0 
55 0 55 0 54 0 55 0 55 0 55 0 55 0 55 0 
55 0 54 0 55 0 55 0 55 0 55 0 55 0 55 0 
54 0 819 2622 90 MP stroke
gr

18 w
c9
0 sg
%%IncludeResource: font Helvetica
/Helvetica /WindowsLatin1Encoding 168 FMSR

2956 2945 mt 
(Itera\347\343o) s
 559 1982 mt  -90 rotate
(Quantidade) s
90 rotate
%%IncludeResource: font Helvetica
/Helvetica /WindowsLatin1Encoding 120 FMSR

 802 2665 mt 
( ) s
5686  515 mt 
( ) s
6 w
1 sg
0 2149 4883 0 0 -2149 819 5607 4 MP
PP
-4883 0 0 2149 4883 0 0 -2149 819 5607 5 MP stroke
4 w
DO
SO
6 w
0 sg
 819 3458 mt 5702 3458 L
 819 5607 mt 5702 5607 L
5702 5607 mt 5702 3458 L
 819 5607 mt  819 3458 L
 819 5607 mt 5702 5607 L
 819 5607 mt  819 3458 L
1312 5607 mt 1312 5558 L
1312 3458 mt 1312 3506 L
1246 5752 mt 
(10) s
1861 5607 mt 1861 5558 L
1861 3458 mt 1861 3506 L
1795 5752 mt 
(20) s
2410 5607 mt 2410 5558 L
2410 3458 mt 2410 3506 L
2344 5752 mt 
(30) s
2958 5607 mt 2958 5558 L
2958 3458 mt 2958 3506 L
2892 5752 mt 
(40) s
3507 5607 mt 3507 5558 L
3507 3458 mt 3507 3506 L
3441 5752 mt 
(50) s
4056 5607 mt 4056 5558 L
4056 3458 mt 4056 3506 L
3990 5752 mt 
(60) s
4604 5607 mt 4604 5558 L
4604 3458 mt 4604 3506 L
4538 5752 mt 
(70) s
5153 5607 mt 5153 5558 L
5153 3458 mt 5153 3506 L
5087 5752 mt 
(80) s
5702 5607 mt 5702 5558 L
5702 3458 mt 5702 3506 L
5636 5752 mt 
(90) s
 819 5607 mt  867 5607 L
5702 5607 mt 5653 5607 L
 718 5651 mt 
(0) s
 819 5271 mt  867 5271 L
5702 5271 mt 5653 5271 L
 718 5315 mt 
(5) s
 819 4935 mt  867 4935 L
5702 4935 mt 5653 4935 L
 651 4979 mt 
(10) s
 819 4599 mt  867 4599 L
5702 4599 mt 5653 4599 L
 651 4643 mt 
(15) s
 819 4263 mt  867 4263 L
5702 4263 mt 5653 4263 L
 651 4307 mt 
(20) s
 819 3928 mt  867 3928 L
5702 3928 mt 5653 3928 L
 651 3972 mt 
(25) s
 819 3592 mt  867 3592 L
5702 3592 mt 5653 3592 L
 651 3636 mt 
(30) s
 819 3458 mt 5702 3458 L
 819 5607 mt 5702 5607 L
5702 5607 mt 5702 3458 L
 819 5607 mt  819 3458 L
gs 819 3458 4884 2150 rc
18 w
/c10 { 0.000000 1.000000 0.000000 sr} bdef
c10
55 134 55 -202 55 -201 55 336 55 -537 55 -538 55 -268 54 -68 
55 0 55 0 55 68 55 0 55 -68 55 68 54 0 55 -68 
55 135 55 -67 55 0 55 0 55 0 55 0 54 0 55 -68 
55 135 55 -67 55 67 55 0 55 -135 54 605 55 0 55 201 
55 202 55 134 55 0 55 134 55 -201 54 -134 55 -269 55 -67 
55 -403 55 67 55 134 55 68 54 67 55 134 55 134 55 -134 
55 269 55 201 55 67 54 67 55 0 55 -470 55 -403 55 68 
55 0 55 67 55 -67 54 -68 55 68 55 134 55 -67 55 -135 
55 68 55 403 54 0 55 -68 55 -268 55 -67 55 -135 55 202 
55 268 55 68 54 -135 55 135 55 335 55 -201 55 67 55 201 
55 135 54 -67 55 134 55 -134 55 67 55 0 55 -336 55 -537 
54 -269 819 5338 90 MP stroke
c8
55 67 55 67 55 -134 55 0 55 403 55 470 55 537 54 67 
55 -269 55 0 55 68 55 -135 55 135 55 -135 54 67 55 -604 
55 -537 55 -135 55 0 55 0 55 68 55 0 54 0 55 -68 
55 68 55 67 55 671 55 202 55 336 54 -538 55 -67 55 -201 
55 -336 55 0 55 -67 55 -135 55 68 54 134 55 67 55 -134 
55 -67 55 0 55 -68 55 0 54 68 55 -68 55 0 55 0 
55 202 55 -134 55 0 54 0 55 0 55 335 55 68 55 67 
55 -135 55 -67 55 -201 54 -67 55 67 55 -135 55 0 55 68 
55 0 55 67 54 67 55 -67 55 -67 55 134 55 -134 55 -68 
55 0 55 0 54 0 55 68 55 -68 55 135 55 134 55 -134 
55 -135 54 0 55 0 55 0 55 0 55 0 55 0 55 0 
54 0 819 5607 90 MP stroke
0.6 sg
55 -135 55 68 55 134 55 -202 55 135 55 0 55 -67 54 -68 
55 68 55 0 55 -68 55 135 55 -135 55 68 54 -68 55 672 
55 537 55 67 55 0 55 68 55 -68 55 -134 54 134 55 68 
55 134 55 -336 55 -537 55 -403 55 -134 54 -68 55 68 55 0 
55 67 55 -135 55 68 55 67 55 134 54 67 55 135 55 134 
55 604 55 -134 55 -134 55 0 54 -202 55 -67 55 -67 55 67 
55 -470 55 -67 55 0 54 -67 55 -68 55 135 55 403 55 -135 
55 202 55 0 55 403 54 -67 55 -135 55 68 55 0 55 0 
55 67 55 -538 54 0 55 68 55 335 55 -67 55 336 55 -269 
55 -134 55 -67 54 67 55 -134 55 -336 55 0 55 -134 55 -68 
55 0 54 0 55 0 55 0 55 0 55 0 55 0 55 0 
54 0 819 5607 90 MP stroke
gr

18 w
0.6 sg
0 sg
%%IncludeResource: font Helvetica
/Helvetica /WindowsLatin1Encoding 168 FMSR

2956 5930 mt 
(Itera\347\343o) s
 559 4967 mt  -90 rotate
(Quantidade) s
90 rotate
%%IncludeResource: font Helvetica
/Helvetica /WindowsLatin1Encoding 120 FMSR

 802 5650 mt 
( ) s
5686 3500 mt 
( ) s
6 w
DA
0 5269 1312 338 2 MP stroke
1303  234 mt 
(t) s
%%IncludeResource: font Helvetica
/Helvetica /WindowsLatin1Encoding 96 FMSR

1336  294 mt 
(1) s
0 5269 1861 338 2 MP stroke
%%IncludeResource: font Helvetica
/Helvetica /WindowsLatin1Encoding 120 FMSR

1852  234 mt 
(t) s
%%IncludeResource: font Helvetica
/Helvetica /WindowsLatin1Encoding 96 FMSR

1885  294 mt 
(2) s
0 5269 2409 338 2 MP stroke
%%IncludeResource: font Helvetica
/Helvetica /WindowsLatin1Encoding 120 FMSR

2401  234 mt 
(t) s
%%IncludeResource: font Helvetica
/Helvetica /WindowsLatin1Encoding 96 FMSR

2434  294 mt 
(3) s
0 5269 2958 338 2 MP stroke
%%IncludeResource: font Helvetica
/Helvetica /WindowsLatin1Encoding 120 FMSR

2949  234 mt 
(t) s
%%IncludeResource: font Helvetica
/Helvetica /WindowsLatin1Encoding 96 FMSR

2982  294 mt 
(4) s
0 5269 3507 338 2 MP stroke
%%IncludeResource: font Helvetica
/Helvetica /WindowsLatin1Encoding 120 FMSR

3498  234 mt 
(t) s
%%IncludeResource: font Helvetica
/Helvetica /WindowsLatin1Encoding 96 FMSR

3531  294 mt 
(5) s
0 5269 4055 338 2 MP stroke
%%IncludeResource: font Helvetica
/Helvetica /WindowsLatin1Encoding 120 FMSR

4046  234 mt 
(t) s
%%IncludeResource: font Helvetica
/Helvetica /WindowsLatin1Encoding 96 FMSR

4079  294 mt 
(6) s
0 5269 4604 338 2 MP stroke
%%IncludeResource: font Helvetica
/Helvetica /WindowsLatin1Encoding 120 FMSR

4595  234 mt 
(t) s
%%IncludeResource: font Helvetica
/Helvetica /WindowsLatin1Encoding 96 FMSR

4628  294 mt 
(7) s
0 5269 5152 338 2 MP stroke
%%IncludeResource: font Helvetica
/Helvetica /WindowsLatin1Encoding 120 FMSR

5144  234 mt 
(t) s
%%IncludeResource: font Helvetica
/Helvetica /WindowsLatin1Encoding 96 FMSR

5177  294 mt 
(8) s
%%IncludeResource: font Helvetica
/Helvetica /WindowsLatin1Encoding 168 FMSR

 268  634 mt 
(a\)) s
 268 3595 mt 
(b\)) s
SO
1 sg
0 480 1046 0 0 -480 4596 1013 4 MP
PP
-1046 0 0 480 1046 0 0 -480 4596 1013 5 MP stroke
4 w
DO
SO
6 w
0 sg
4596  533 mt 5642  533 L
4596 1013 mt 5642 1013 L
5642 1013 mt 5642  533 L
4596 1013 mt 4596  533 L
4596 1013 mt 5642 1013 L
4596 1013 mt 4596  533 L
4596  533 mt 5642  533 L
4596 1013 mt 5642 1013 L
5642 1013 mt 5642  533 L
4596 1013 mt 4596  533 L
%%IncludeResource: font Helvetica
/Helvetica /WindowsLatin1Encoding 120 FMSR

5061  668 mt 
(Triangular) s
gs 4596 533 1047 481 rc
18 w
358 0 4667 625 2 MP stroke
gr

18 w
5061  816 mt 
(Bastonete) s
gs 4596 533 1047 481 rc
c8
358 0 4667 773 2 MP stroke
gr

c8
0 sg
5061  964 mt 
(Circular) s
gs 4596 533 1047 481 rc
c9
358 0 4667 920 2 MP stroke
6 w
gr

6 w
c9
1 sg
0 480 1012 0 0 -480 4631 3998 4 MP
PP
-1012 0 0 480 1012 0 0 -480 4631 3998 5 MP stroke
4 w
DO
SO
6 w
0 sg
4631 3518 mt 5643 3518 L
4631 3998 mt 5643 3998 L
5643 3998 mt 5643 3518 L
4631 3998 mt 4631 3518 L
4631 3998 mt 5643 3998 L
4631 3998 mt 4631 3518 L
4631 3518 mt 5643 3518 L
4631 3998 mt 5643 3998 L
5643 3998 mt 5643 3518 L
4631 3998 mt 4631 3518 L
5097 3653 mt 
(Verde) s
gs 4631 3518 1013 481 rc
18 w
c10
358 0 4702 3610 2 MP stroke
gr

18 w
c10
0 sg
5097 3801 mt 
(Vermelho) s
gs 4631 3518 1013 481 rc
c8
358 0 4702 3758 2 MP stroke
gr

c8
0 sg
5097 3949 mt 
(Cinza) s
gs 4631 3518 1013 481 rc
0.6 sg
358 0 4702 3905 2 MP stroke
6 w
gr

6 w
0.6 sg

end %%Color Dict

eplot
%%EndObject

epage
end

showpage

%%Trailer
%%EOF
