%!PS-Adobe-3.0 EPSF-3.0
%%Creator: GIMP PostScript file plugin V 1,17 by Peter Kirchgessner
%%Title: rolete_pizza.eps
%%CreationDate: Tue Feb 21 10:42:47 2017
%%DocumentData: Clean7Bit
%%LanguageLevel: 2
%%Pages: 1
%%BoundingBox: 14 14 290 270
%%EndComments
%%BeginProlog
% Use own dictionary to avoid conflicts
10 dict begin
%%EndProlog
%%Page: 1 1
% Translate for offset
14.173228346456694 14.173228346456694 translate
% Translate to begin of first scanline
0 254.87475997615184 translate
275.75433070866143 -254.87475997615184 scale
% Image geometry
383 354 8
% Transformation matrix
[ 383 0 0 354 0 0 ]
% Strings to hold RGB-samples per scanline
/rstr 383 string def
/gstr 383 string def
/bstr 383 string def
{currentfile /ASCII85Decode filter /RunLengthDecode filter rstr readstring pop}
{currentfile /ASCII85Decode filter /RunLengthDecode filter gstr readstring pop}
{currentfile /ASCII85Decode filter /RunLengthDecode filter bstr readstring pop}
true 3
%%BeginData:        21550 ASCII Bytes
colorimage
JcC<$K)^?~>
JcC<$K)^?~>
JcC<$K)^?~>
JcC<$K)^?~>
JcC<$K)^?~>
JcC<$K)^?~>
JcC<$K)^?~>
JcC<$K)^?~>
JcC<$K)^?~>
JcC<$K)^?~>
JcC<$K)^?~>
JcC<$K)^?~>
JcC<$K)^?~>
JcC<$K)^?~>
JcC<$K)^?~>
JcC<$K)^?~>
JcC<$K)^?~>
JcC<$K)^?~>
JcC<$K)^?~>
JcC<$K)^?~>
JcC<$K)^?~>
JcF*sp2]k.JcEjlJ,~>
JcF*sp7M&LJcEjlJ,~>
JcF*sp<WFQJcEjlJ,~>
JcFR+l#Q#iJcF=$J,~>
JcFR+l(@42JcF=$J,~>
JcFR+l-JT7JcF=$J,~>
JcFd1j)X0]JcFO*J,~>
JcFd1j.GA&JcFO*J,~>
JcFd1j3Qa+JcFO*J,~>
JcFp5hf@UUJcF[.J,~>
JcFp5hk/esJcF[.J,~>
JcFp5hp:1#JcF[.J,~>
JcG'9gN)"LJcFj3J,~>
JcG'9gRm2jJcFj3J,~>
JcG'9gX"RoJcFj3J,~>
JcG3=f5fGDJcG!7J,~>
JcG3=f:UWbJcG!7J,~>
JcG3=f?`"gJcG!7J,~>
JcGBBdW3c;JcG-;J,~>
JcGBBd\"sYJcG-;J,~>
JcGBBda->^JcG-;J,~>
JcGNFc>q33JcG9?J,~>
JcGNFcC`CQJcG9?J,~>
JcGNFcHjcVJcG9?J,~>
JcGWIbAtd-JcGBBJ,~>
JcGWIbFctKJcGBBJ,~>
JcGWIbKn?PJcGBBJ,~>
JcG]Ka`>I(JcGKEJ,~>
JcG]Kae-YFJcGKEJ,~>
JcG]Kaj8$KJcGKEJ,~>
Jc>`M`cB%"JcGTHJ,~>
Jc>`M`h15@JcGTHJ,~>
Jc>`M`m;UEJcGTHJ,~>
K)`c0_cMEhr;V9~>
K)`c]_juAYr;V9~>
K)`d8_]==.r;V9~>
L&\u0^fQ*es8RT~>
L&\u]^n$&Vs8RT~>
L&]!8^`A"+s8RT~>
L]>,0^/omcJ,~>
L]>,]^7BiTJ,~>
L]>-8^)_e)J,~>
MZ:>0]2s[cJ,~>
MZ:>]]:FWTJ,~>
MZ:?8],cS)J,~>
N;pJ0]N9acJ,~>
N;pJ]]Uf&NLAuc~>
N;pK8]H-tpLAuc~>
NrQV0]N9acJ,~>
NrQV]]UeuLM#Vu~>
NrQW8]H-nnM#Vu~>
OoMh0]N9acJ,~>
OoMh]]UeoJMZ82~>
OoMi8]H-hlMZ82~>
PQ.t0]iTgcJ,~>
PQ.t]]q+oHN;nD~>
PQ.u8]cHhjN;nD~>
Q2e+0]iTgcJ,~>
Q2e+]]q+iFNrOV~>
Q2e,8]cHbhNrOV~>
QN+10^/omcJ,~>
QN+1]^7FiDOT0h~>
QN+28^)cbfOT0h~>
R/a=0^/omcJ,~>
R/a=]^7FcBP5g%~>
R/a>8^)c\dP5g%~>
RK'C0^K6!d!<7Q~>
RK'C]^Rac@PlH7~>
RK'D8^E)\bPlH7~>
S,]O0^K6!d!<7Q~>
S,]O]^Ra`?Q2c@~>
S,]P8^E)YaQ2c@~>
Sc>[0^fQ*es8RT~>
Sc>[]^n'`=QiDR~>
Sc>\8^`DY_QiDR~>
T)Ya0^fQ*es8RT~>
T)Ya]^n']<R/_[~>
T)Yb8^`DV^R/_[~>
T`:m0^fQ*es8RT~>
T`:m]^n'W:Rf@m~>
T`:n8^`DP\Rf@m~>
UAq$0_,l3frr7K~>
UAq$]_4BZ9S,\!~>
UAq%8_&_S[S,\!~>
U]7*0_,l3frr7K~>
U]7*]_4BT7Sc=3~>
U]7+8_&_MYSc=3~>
V>m60_H2<grVqB~>
V>m6]_O]W6T)X<~>
V>m78_B%PXT)X<~>
VuNB0_H2<grVqB~>
VuNB]_O]Q4T`9N~>
VuNC8_B%JVT`9N~>
W;iH0_cMEhr;V9~>
W;iH]_k#Q2UAo`~>
W;iI8_]@JTUAo`~>
WrJT0_cMEhr;V9~>
WrJT]_k#N1U]5i~>
WrJU8_]@GSU]5i~>
X8eZ0`)hNiqu;0~>
X8eZ]`1>Q0V#Pr~>
X8e[8`#[JRV#Pr~>
XT+`0`)hNiqu;0~>
XT+`]`1>N/V>l&~>
XT+a8`#[GQV>l&~>
XoFf0`)hNiqu;0~>
XoFf]`1>K.VZ2/~>
XoFg8`#[DPVZ2/~>
Y5al0`E.WjqYu'~>
Y5al]`LYK,W;hA~>
Y5am8`?!DNW;hA~>
YlC#0`E.WjqYu'~>
YlC#]`LYH+WW.J~>
YlC$8`?!AMWW.J~>
Z2^)0``I`kq>Ys~>
Z2^)]`gtK*WrIS~>
Z2^*8`Z<DLWrIS~>
ZN$/0``I`kq>Ys~>
ZN$/]`gtH)X8d\~>
ZN$08`Z<AKX8d\~>
Zi?50a&dilq#>j~>
Zi?5]a.:K(XT*e~>
Zi?68`uWDJXT*e~>
[/Z;0a&dilq#>j~>
[/Z;]a.:E&Y5a"~>
[/Z<8`uW>HY5a"~>
[JuA0aB*rmp]#a~>
[JuA]aIUH%YQ'+~>
[JuB8a;rAGYQ'+~>
\,VM0aB*rmp]#a~>
\,VM]aIUE$YlB4~>
\,VN8a;r>FYlB4~>
\GqS0nlPejgK/t+pA]X~>
\GqS]nt#a[gRZ@5Z2]=~>
\GqT8nf@]0gE"9WZ2]=~>
\c7Y0nlPejgK/t+pA]X~>
\c7Y]nt#a[gRZ=4ZN#F~>
\c7Z8nf@]0gE"6VZN#F~>
])R_0nlPejgK/t+pA]X~>
])R_]nt#a[gRZ:3Zi>O~>
])R`8nf@]0gE"3UZi>O~>
]Dme0nlPejgfK(,p&BO~>
]Dme]nt#a[gmu:1[Jta~>
]Dmf8nf@]0g`=3S[Jta~>
]`3k0nlPejgfK(,p&BO~>
]`3k]nt#a[gmu70[f:j~>
]`3l8nf@]0g`=0R[f:j~>
^Aj"0nlPejh,f1-o`'F~>
^Aj"]nt#a[h4;:/\,Us~>
^Aj#8nf@]0h&X3Q\,Us~>
^Aj"0nlPejh,f1-o`'F~>
^Aj"]nt#a[h4;7.\Gq'~>
^Aj#8nf@]0h&X0P\Gq'~>
^]0(0nlPejhH,:.oDa=~>
^]0(]nt#a[hOV:-\c70~>
^]0)8nf@]0hAs3O\c70~>
_#K.0nlPejhH,:.oDa=~>
_#K.]nt#a[hOV:-\c70~>
_#K/8nf@]0hAs3O\c70~>
_>f40nlPejhcGC/o)F4~>
_>f4]nt#a[hjq=,])R9~>
_>f58nf@]0h]96N])R9~>
_Z,:0nlPejhcGC/o)F4~>
_Z,:]nt#a[hjq:+]DmB~>
_Z,;8nf@]0h]93M]DmB~>
_uG@0nlPejhcGC/o)F4~>
_uG@]nt#a[hjq7*]`3K~>
_uGA8nf@]0h]90L]`3K~>
`;bF0nlPejqH!_j%KPcqJcG9?J,~>
`;bF]nt#a[qOI\B)?B&n[F;hhJ,~>
`;bG8nf@]0qAfVT"T[g.[3<6`J,~>
`;bF0nlPejqc<l"&ju`b=+UDAs*t~>
`;bF]nt#a[qjdhW+aO.RS[?k[s*t~>
`;bG8nf@]0q],bY"r@:)*OI!(s*t~>
`W(L0nlPejqc<kG038/>=+UD@s*t~>
`W(L]nt#a[qjdgU<1O$TS[-_Zs*t~>
`W(M8nf@]0q],bI&01c:*O6j's*t~>
`rCU1!-7X3rW)jt"?[Q'<rhPfJcG6>J,~>
`rCU^!2&hQrW)ke"DfZ[SH.uHZI?SgJ,~>
`rCV9!713VrW)j:";D+^*<>CGZ6@!_J,~>
a8^^2s)R[3rW)mu"\fM(='#Cg=+UD?s*t~>
a8^^_s.AkQrW)nf"cF@_SXfcISZpSYs*t~>
a8^_:s3L6VrW)m;"W@O`*?>.H*O$^&s*t~>
aT$g3rc7R2rW)mu!>Rs#<r`6e=+UD?s*t~>
aT$g`rh&bPrW)nf!@N*jSH&ZVSZgMYs*t~>
aT$h;rm1-UrW)m;!='D>*<6*+*NpX&s*t~>
ao?p4rGqI1rW)muq>fqbJcG0<J,~>
ao?parL`YOrW)nfq>frSXjb/eJ,~>
ao?q<rQk$TrW)m;q>fq(XWbR]J,~>
b5[$5r,V@0rW)^p!!)CfJcG0<J,~>
b5[$br1EPNrW)_a!!)DWXOG)eJ,~>
b5[%=r6OpSrW)^6!!)C,X<GL]J,~>
b5[$5r,V@0rW)^p!!)CfJcG0<J,~>
b5[$br1EPNrW)_a!!)DWX4,#eJ,~>
b5[%=r6OpSrW)^6!!)C,X!,F]J,~>
bQ!-6qf;7/rW)^p!!)FgJcG-;J,~>
bQ!-cqk*GMrW)_a!!)GXWRJidJ,~>
bQ!.>qp4gRrW)^6!!)F-W?K7\J,~>
bl<67qJt"cJcG-;J,~>
bl<6dqOc3,WRJidJ,~>
bl<7?qTmS1W?K7\J,~>
c2W?8q/XqcJcG*:J,~>
c2W?eq4H-,VpiZcJ,~>
c2W@@q9RM1V]j([J,~>
cMrH9pi=hbJcG*:J,~>
cMrHfpn-$+VUNTcJ,~>
cMrIAps7D0VBO"[J,~>
ci8Q:pN"bbJcG'9J,~>
ci8QgpRfs+UsmEbJ,~>
ci8RBpWq>0U`mhZJ,~>
ci8Q:pN"bbJcG'9J,~>
ci8QgpRfs+UXR?bJ,~>
ci8RBpWq>0UERbZJ,~>
d/SZ;p2\\bJcG$8J,~>
d/SZhp7Km+U=76aJ,~>
d/S[Cp<V80U*7YYJ,~>
dJnc<olASaJcG$8J,~>
dJncioq0d*U!q0aJ,~>
dJndDp!;//TcqSYJ,~>
dJnc<olASaJcG$8J,~>
dJncioq0d*U!q0aJ,~>
dJndDp!;//TcqSYJ,~>
df4l=oQ&MaJcG!7J,~>
df4ljoUj^*T@;!`J,~>
df4mEoZu)/T-;DXJ,~>
df4l=oQ&MaJcG!7J,~>
df4ljoUj^*T$tp`J,~>
df4mEoZu)/Sfu>XJ,~>
e,Ou>o5`GaJcFs6J,~>
e,Ouko:OX*S^Yg_J,~>
e,P!Fo?Z#/SKZ5WJ,~>
eGk)?noE>`JcFs6J,~>
eGk)lnt4O)SC>a_J,~>
eGk*Go$>o.S0?/WJ,~>
eGk)?noEAaJcFp5J,~>
eGk)lnt4R*Ra]R^J,~>
eGk*Go$>r/RN]uVJ,~>
ec12@nT*8`JcFp5J,~>
ec12mnXnI)Ra]R^J,~>
ec13Hn^#i.RN]uVJ,~>
ec12@nT*;af)P^LPlH7~>
ec12mnXnL*f$jTu`m`96J,~>
ec13Hn^#l/efk"m`Z`\.J,~>
f)L;An8d2`f)P^LPlH7~>
f)L;nn=SC)f$jTu`m`96J,~>
f)L<InB]c.efk"m`Z`\.J,~>
fDgDBmrI)_f)P^LPlH7~>
fDgDon"8:(f$jTu`RE36J,~>
fDgEJn'BZ-efk"m`?EV.J,~>
fDgDBmrI,`ec5UKPlH7~>
fDgDon"8=)e^OKt`7*-6J,~>
fDgEJn'B].eKOnl`$*P.J,~>
f`-MCmW.#_ec5UKPlH7~>
f`-Mpm[r4(e^OKt`7*-6J,~>
f`-NKma'T-eKOnl`$*P.J,~>
g&HVDm;gr_eGoLJPlH7~>
g&HVqm@W.(eC4Bs_pd'6J,~>
g&HWLmEaN-e04ek_]dJ.J,~>
g&HVDm;gr_eGoLJPlH7~>
g&HVqm@W.(eC4Bs_pd'6J,~>
g&HWLmEaN-e04ek_]dJ.J,~>
gAc_EluLl_e,TCIPlH7~>
gAc_rm%<((e'n9r_UI!6J,~>
gAc`Mm*FH-din\j_BID.J,~>
gAc_EluLl_e,TCIPlH7~>
gAc_rm%<((e'n9r_:-p6J,~>
gAc`Mm*FH-din\j_'.>.J,~>
g])hFlZ1f_df9:HPlH7~>
g])hsl_!"(daS0q_:-p6J,~>
g])iNld+B-dNSSi_'.>.J,~>
h#DqGl>k]^df9:HPlH7~>
h#DqtlCZn'daS0q^sgj6J,~>
h#DrOlHe9,dNSSi^`h8.J,~>
h#DqGl>k]^df9:HPlH7~>
h#DqtlCZn'daS0q^XLd6J,~>
h#DrOlHe9,dNSSi^EM2.J,~>
h>`%Hl#PW^dJs1GrVm):;\BEaH17I+J,~>
h>`%ul(?h'dF8'prR1tB71TYGAB2jAf)L7~>
h>`&Pl-J3,d38Jhr?2@_$N^>4&0K%<f)L7~>
h>`%Hl#PW^dJs1GrVm'_T]Gt,BL8?kJ,~>
h>`%ul(?h'dF8'prR1s)KY>^B<]A.LfDg@~>
h>`&Pl-J3,d38Jhr?2@N'cnJ<%11-"fDg@~>
hZ&.Ik]5Q^d/X(Fq#:B`$(q6J~>
hZ&/!kb$b'd*qsopsT8`#KbHHs*t~>
hZ&/Qkg/-,clrAgp`TY[!QcM:s*t~>
hZ&.Ik]5Q^d/X(FqYpZribh_fs*t~>
hZ&/!kb$b'd*qsoqU5Po]3@bHe(=VM~>
hZ&/Qkg/-,clrAgq&oe[%L^B%fDg@~>
hZ&.Ik]5T_ci<tEqu?Wq!@[?-s*t~>
hZ&/!kb$e(cdVjnqpYNE!?oD&e(F\N~>
hZ&/Qkg/0-cQW8fq]Yq=!<jRd+kZgF~>
huA7JkAoK^ci<tEqYpZodm[Q7s*t~>
huA8"kF^\'cdVjnqU5PmY;o=ue(F\N~>
huA8RkKi',cQW8fqB5q`)[Qqo+kZgF~>
huA7JkAoN_cN!kDq#:BW%A3ZN~>
huA8"kF^_(cI;ampsT8X$cg`Ls*t~>
huA8RkKi*-c6</ep`TYZ!llJ;s*t~>
i;\@Kk&TE^cN!kDq#:BP';,;T~>
i;\A#k+CV'cI;ampsT8S&BE8Qs*t~>
i;\ASk0N!,c6</ep`TYY!llJ;s*t~>
i;\@Kk&TE^cN!kDrVm'u_Y*N?3d@:sJ,~>
i;\A#k+CV'cI;amrR1s;U!(QR0Or/Pg&HR~>
i;\ASk0N!,c6</er?2@P)'C">#S>$"g&HR~>
iW"ILj`9?^c2[bCrVm)05RA&]SGo/\J,~>
iW"J$je(P'c-uXlrR1t:2$XXDJ^VQegAc[~>
iW"JTjj2p,bp!&dr?2=\#QXu3'ZD6Ls*t~>
iW"ILj`9?^JcFR+J,~>
iW"J$je(P'K[\ZTJ,~>
iW"JTjj2p,KH](LJ,~>
iW"ILj`9B_JcFO*J,~>
iW"J$je(S(K%&KSJ,~>
iW"JTjj2s-Jg&nKJ,~>
ir=RMjDs9^JcFO*J,~>
ir=S%jIbJ'K%&KSJ,~>
ir=SUjNlj,Jg&nKJ,~>
ir=RMjDs<_JcFL)J,~>
ir=S%jIbM(J^XVJh#Dm~>
ir=SUjNlm-JKY":h#Dm~>
j8X[Nj)X3^JcFL)J,~>
j8X\&j.GD'J^XVJh#Dm~>
j8X\Vj3Qd,JKY":h#Dm~>
j8X[Nj)X6_JcFI(J,~>
j8X\&j.GG(J^aYJh#Dm~>
j8X\Vj3Qg-JKb%:h#Dm~>
j8X[Nj)X6_JcFI(J,~>
j8X\&j.GG(J^aVIh>`!~>
j8X\Vj3Qg-JKb"9h>`!~>
jSsdOic=-^JcFI(J,~>
jSse'ih,>'J^aVIh>`!~>
jSseWim6^,JKb"9h>`!~>
jSsdOic=0_JcFF'J,~>
jSse'ih,A(J^aPGhZ&*~>
jSseWim6a-JKaq7hZ&*~>
jo9mPiH"'^JcFF'J,~>
jo9n(iLf8'J^aPGhZ&*~>
jo9nXiQpX,JKaq7hZ&*~>
jo9mPiH"*_JcFC&J,~>
jo9n(iLf;(J^aMFhZ&*~>
jo9nXiQp[-JKan6hZ&*~>
jo9mPiH"*_JcFC&J,~>
jo9n(iLf;(J^aJEhuA3~>
jo9nXiQp[-JKak5huA3~>
k5U!Qi,\$_JcF@%J,~>
k5U")i1K5(J^aGDhuA3~>
k5U"Yi6UU-JKah4huA3~>
k5U!Qi,\$_JcF@%J,~>
k5U")i1K5(J^aDCi;\<~>
k5U"Yi6UU-JKae3i;\<~>
kPp*Rhf@s_JcF=$J,~>
kPp+*hk0/(J^aABi;\<~>
kPp+Zhp:O-JKab2i;\<~>
kPp*Rhf@s_JcF=$J,~>
kPp+*hk0/(J^aABi;\<~>
kPp+Zhp:O-JKab2i;\<~>
kPp*Rhf@s_JcF=$J,~>
kPp+*hk0/(J^aGDr^5ZEJ,~>
kPp+Zhp:O-JKah4rX[ufJ,~>
kl63ShK%m_JcF:#J,~>
kl64+hOj)(J^aMFqa9?BJ,~>
kl64[hTtI-JKan6q[_ZcJ,~>
kl63ShK%m_JcF:#J,~>
kl64+hOj)(J^aVIpd=$?J,~>
kl64[hTtI-JKb"9p^c?`J,~>
kl63ShK%p`JcF7"J,~>
kl64+hOj,)J^XVJog@^<J,~>
kl64[hTtL.JKY":oag$]J,~>
kl63ShK%p`JcF7"J,~>
kl64+hOj,)K[]EXir=N~>
kl64[hTtL.KH]gqir=N~>
l2Q<Th/_j`JcF4!J,~>
l2Q=,h4O&)L=>NWir=N~>
l2Q=\h9YF.L*>ppir=N~>
l2Q<Th/_j`JcF4!J,~>
l2Q=,h4O&)M::`Wir=N~>
l2Q=\h9YF.M';-pir=N~>
l2Q<Th/_maJcF0uJ,~>
l2Q=,h4O)*MppiVir=N~>
l2Q=\h9YI/M]q6oir=N~>
l2Q<Th/_maJcF0uJ,~>
l2Q=,h4O)*Nmm#Uj8XW~>
l2Q=\h9YI/NZmEnj8XW~>
l2Q<Th/_maJcF0uJ,~>
l2Q=,h4O)*Oji5Uj8XW~>
l2Q=\h9YI/OWiWnj8XW~>
lMlEUgiDgaJcF-tJ,~>
lMlF-gn4#*PLJ>Tj8XW~>
lMlF]gs>C/P9J`mj8XW~>
lMlEUgiDgaJcF-tJ,~>
lMlF-gn4#*QIFPTj8XW~>
lMlF]gs>C/Q6Frmj8XW~>
lMlEUgiDjbJcF*sJ,~>
lMlF-gn4&+R+'VRjSs`~>
lMlF]gs>F0Qm(#kjSs`~>
lMlEUgiDjbJcF*sJ,~>
lMlF-gn4&+S(#hRjSs`~>
lMlF]gs>F0Rj$5kjSs`~>
li2NVgN)dbJcF'rJ,~>
li2O.gRmu+S^YqQjSs`~>
li2O^gX#@0SKZ>jjSs`~>
li2NVgN)dbJcF'rJ,~>
li2O.gRmu+T[V.QjSs`~>
li2O^gX#@0THVPjjSs`~>
li2NVgN)gcJcF$qJ,~>
li2O.gRn#,UXR:Ojo9i~>
li2O^gX#C1UER\hjo9i~>
li2NVgN)gcJcF$qJ,~>
li2O.gRn#,VUNLOjo9i~>
li2O^gX#C1VBNnhjo9i~>
m/MWWg2cacJcF!pJ,~>
m/MX/g7Rr,W7/UNjo9i~>
m/MX_g<]=1W$0"gjo9i~>
m/MWWg2cacJcF!pJ,~>
m/MX/g7Rr,X4+gNjo9i~>
m/MX_g<]=1X!,4gjo9i~>
m/MWWg2cacJcF!pJ,~>
m/MX/g7Rr,Y1($Njo9i~>
m/MX_g<]=1Xs(Fgjo9i~>
m/MWWg2cddJcEsoJ,~>
m/MX/g7Ru-Yg^*Lk5Tr~>
m/MX_g<]@2YT^Lek5Tr~>
mJh`XflH[cJcEsoJ,~>
mJha0fq7l,ZdZ<Lk5Tr~>
mJha`g!B71ZQZ^ek5Tr~>
mJh`XflH^dJcEpnJ,~>
mJha0fq7o-[F;EKk5Tr~>
mJha`g!B:2[3;gdk5Tr~>
mJh`XflH^dJcEpnJ,~>
mJha0fq7o-\C7WKk5Tr~>
mJha`g!B:2\08$dk5Tr~>
mJh`XflHaeJcEmmJ,~>
mJha0fq7r.]$m]IkPp&~>
mJha`g!B=3\fn*bkPp&~>
mJh`XflHaeJcEmmJ,~>
mJha0fq7r.^!ioIkPp&~>
mJha`g!B=3]cj<bkPp&~>
mJh`XflHdfJcEjlJ,~>
mJha0fq7u/^XK#HkPp&~>
mJha`g!B@4^EKEakPp&~>
mJh`XflHdfJcEjlJ,~>
mJha0fq7u/_pb;HkPp&~>
mJha`g!B@4_]b]akPp&~>
mf.iYfQ-[eJcEjlJ,~>
mf.j1fUql.`m^MHkPp&~>
mf.jaf['73`Z^oakPp&~>
mf.iYfQ-^fJcEgkJ,~>
mf.j1fUqo/aO?VGkPp&~>
mf.jaf[':4a<@#`kPp&~>
mf.iYfQ-^fJcEgkJ,~>
mf.j1fUqo/bL;hGkPp&~>
mf.jaf[':4b9<5`kPp&~>
mf.iYfQ-agJcEdjJ,~>
mf.j1fUqr0c-qqFkPp&~>
mf.jaf['=5bor>_kPp&~>
mf.iYfQ-agJcEdjJ,~>
mf.j1fUqr0d*n.FkPp&~>
mf.jaf['=5clnP_kPp&~>
mf.iYfQ-dhJcEaiJ,~>
mf.j1fUqu1daO7EkPp&~>
mf.jaf['@6dNOY^kPp&~>
mf.iYfQ-dhJcEaiJ,~>
mf.j1fUqu1e^KIEkPp&~>
mf.jaf['@6eKKk^kPp&~>
mf.iYfQ-giJcE^hJ,~>
mf.j1fUr#2f@,RDkPp&~>
mf.jaf['C7f-,t]kPp&~>
mf.iYfQ-giJcE^hJ,~>
mf.j1fUr#2g=(aCkl6/~>
mf.jaf['C7g*).\kl6/~>
mf.iYfQ-giJcE^hJ,~>
mf.j1fUr#2h:$sCkl6/~>
mf.jaf['C7h'%@\kl6/~>
mf.iYfQ-jjJcE[gJ,~>
mf.j1fUr&3hp[-Ds$Q#MJ,~>
mf.jaf['F8h][O]rt">nJ,~>
mf.iYfQ-jjJcE[gJ,~>
mf.j1fUr&3imWHGr'T]JJ,~>
mf.jaf['F8iZWj`r"&#kJ,~>
n,IrZf5gdjJcEXfJ,~>
n,Is2f:Vu3jjScJpd=9FJ,~>
n,Isbf?a@8jWT0cp^cTgJ,~>
n,IrZf5gdjJcEXfJ,~>
n,Is2f:Vu3kgP)Mog@sCJ,~>
n,Isbf?a@8kTPKfoag9dJ,~>
n,IrZf5ggkJcEUeJ,~>
n,Is2f:W#4lI1;OnjDX@J,~>
n,Isbf?aC9l61]hndjsaJ,~>
n,IrZf5ggkJcEUeJ,~>
n,Is2f:W#4mF-VRmmH==J,~>
n,Isbf?aC9m3.#kmgnX^J,~>
n,IrZf5gjlJcERdJ,~>
n,Is2f:W&5n'chTlpL":J,~>
n,Isbf?aF:mid5mljr=[J,~>
n,IrZf5gjlJcERdJ,~>
n,Is2f:W&5o$`.WksO\7J,~>
n,Isbf?aF:nf`Ppkn!"XJ,~>
n,IrZf5gjlJcERdJ,~>
n,Is2f:W&5p!\IZk!SA4J,~>
n,Isbf?aF:oc\ksjq$\UJ,~>
n,IrZf5gmmJcEOcJ,~>
n,Is2f:W)6pX=[\j$W&1J,~>
n,Isbf?aI;pE>(uit(ARJ,~>
n,IrZf5gmmJcEOcJ,~>
n,Is2f:W)6qU:!_i'Z`.J,~>
n,Isbf?aI;qB:D#i",&OJ,~>
n,IrZf5^jmJcELbJ,~>
n,Is2f:N&6r6p3agdC?+J,~>
n,Isbf?XF;r#pV%g^iZLJ,~>
n,IrZf5^jmJcELbJ,~>
n,Is2f:N,8e'ik8fgG$(J,~>
n,Isbf?XL=+X)CIfam?IJ,~>
n,IrZf5cHB^Ai]~>
n,Is2f:RU]ejJ^%J,~>
n,Isbf?]!Yedq$FJ,~>
n,IrZf5cHB^Ai]~>
n,Is2f:RU]ejJ^%J,~>
n,Isbf?]!Yedq$FJ,~>
n,IrZf5cHB^Ai]~>
n,Is2f:RU]f0ed%J,~>
n,Isbf?]!Yf+7*FJ,~>
n,IrZeoH?A^]/f~>
n,Is2et7L\fL+m&J,~>
n,Isbf$AmXfFR3GJ,~>
n,Kh:rW&a7JcELbJ,~>
n,KhgrW&adJOA'Wkl6/~>
n,KiBrW&b?JIgBDkl6/~>
n,Kh:rW&a7JcELbJ,~>
n,KhgrW&adJOA'Wkl6/~>
n,KiBrW&b?JIgBDkl6/~>
n,Kh:rW&a7JcELbJ,~>
n,KhgrW&adJOA'Wkl6/~>
n,KiBrW&b?JIgBDkl6/~>
n,Kh:rW&a7JcELbJ,~>
n,KhgrW&adJOA'Wkl6/~>
n,KiBrW&b?JIgBDkl6/~>
n,Kh:rW&^6JcEOcJ,~>
n,KhgrW&^cJOA*Xkl6/~>
n,KiBrW&_>JIgEEkl6/~>
n,Kh:rW&^6JcEOcJ,~>
n,KhgrW&^cJOA*Xkl6/~>
n,KiBrW&_>JIgEEkl6/~>
mf0b:rW&^6JcEOcJ,~>
mf0bgrW&^cJOA*Xkl6/~>
mf0cBrW&_>JIgEEkl6/~>
mf0b:rW&^6JcEOcJ,~>
mf0bgrW&^cJOA*Xkl6/~>
mf0cBrW&_>JIgEEkl6/~>
mf0b:rW&[5JcERdJ,~>
mf0bgrW&[bJOA-Ykl6/~>
mf0cBrW&\=JIgHFkl6/~>
mf0b:rW&[5JcERdJ,~>
mf0bgrW&[bJOA-Ykl6/~>
mf0cBrW&\=JIgHFkl6/~>
mf0b:rW&[5JcERdJ,~>
mf0bgrW&[bJOA-Ykl6/~>
mf0cBrW&\=JIgHFkl6/~>
mf0b:rW&[5JcERdJ,~>
mf0bgrW&[bJOA0ZkPp&~>
mf0cBrW&\=JIgKGkPp&~>
mf0b:rW)k:!`U$;WcE[j_>f#~>
mf0bgrW)kg!d5dgWh4i0gI(0(J,~>
mf0cBrW)lB!gtV?Wm?5,gCNKIJ,~>
mf0b:rW)k:!ZY2?WH*Ri_Z,,~>
mf0bgrW)kg![i0lWLn`/gdC9)J,~>
mf0cBrW)lB!]-;GWR$,+g^iTJJ,~>
mf0b:rW)e8!!'!=JcEUeJ,~>
mf0bgrW)ee!!'!jJOA3[kPp&~>
mf0cBrW)f@!!'"EJIgNHkPp&~>
mf0b:rW)e8!!'!=JcEUeJ,~>
mf0bgrW)ee!!'!jJOA3[kPp&~>
mf0cBrW)f@!!'"EJIgNHkPp&~>
mf0b:rW)e8!!'!=JcEUeJ,~>
mf0bgrW)ee!!'!jJOA3[kPp&~>
mf0cBrW)f@!!'"EJIgNHkPp&~>
mf0b:rW)e8!!'!=JcEUeJ,~>
mf0bgrW)ee!!'!jJOA3[kPp&~>
mf0cBrW)f@!!'"EJIgNHkPp&~>
mf0b:rW)e8!!&s<JcEXfJ,~>
mf0bgrW)ee!!&siJOA6\kPp&~>
mf0cBrW)f@!!&tDJIgQIkPp&~>
mJj\:rW)e8!!&s<JcEXfJ,~>
mJj\grW)ee!!&siJOA6\kPp&~>
mJj]BrW)f@!!&tDJIgQIkPp&~>
mJj\:rW)e8!!&s<JcEXfJ,~>
mJj\grW)ee!!&siJOA6\kPp&~>
mJj]BrW)f@!!&tDJIgQIkPp&~>
mJj\:rW)k:quEa;JcEXfJ,~>
mJj\grW)kgquEahJOA6\kPp&~>
mJj]BrW)lBquEbCJIgQIkPp&~>
mJh`Xe8g-?_uG5~>
mJha0e=V:Zh*^B*J,~>
mJha`eB`[Vh%/]KJ,~>
mJh`XdrL$>`;b>~>
mJha0e";1Yha?Q+J,~>
mJha`e'ERUh[elLJ,~>
mJh`XdrL$>`;b>~>
mJha0e";1Yha?Q+J,~>
mJha`e'ERUh[elLJ,~>
mJh`XdrL$>`;b>~>
mJha0e";1Yha?Q+J,~>
mJha`e'ERUh[elLJ,~>
m/MWWe8g-?`;b>~>
m/MX/e=V:Zha?Q+J,~>
m/MX_eB`[Vh[elLJ,~>
m/MWWdrL$>`W(G~>
m/MX/e";1YiBu`,J,~>
m/MX_e'ERUi=G&MJ,~>
m/MWWdrL$>`W(G~>
m/MX/e";1YiBu`,J,~>
m/MX_e'ERUi=G&MJ,~>
m/MWWdrL$>`W(G~>
m/MX/e";1YiBu`,J,~>
m/MX_e'ERUi=G&MJ,~>
li2NVe8g-?`W(G~>
li2O.e=V:ZiBu`,J,~>
li2O^eB`[Vi=G&MJ,~>
li2NVe8g-?`W(G~>
li2O.e=V:Zi^;f,J,~>
li2O^eB`[ViXb,MJ,~>
li2NVdrL$>`rCP~>
li2O.e";1Yj$Vo-J,~>
li2O^e'ERUit(5NJ,~>
li2NVdrL$>`rCP~>
li2O.e";1Yj$Vo-J,~>
li2O^e'ERUit(5NJ,~>
lMlEUe8g-?`rCP~>
lMlF-e=V:Zj$Vo-J,~>
lMlF]eB`[Vit(5NJ,~>
lMlEUe8g-?`rCP~>
lMlF-e=V:Zj?qu-J,~>
lMlF]eB`[Vj:C;NJ,~>
lMlEUe8g-?`rCP~>
lMlF-e=V:Zj?qu-J,~>
lMlF]eB`[Vj:C;NJ,~>
lMlEUdrMVkrW&MhJ,~>
lMlF-e"<d1rW'Ptj8XW~>
lMlF]e'G0-rW'P@j8XW~>
l2Q<Te8h_lrW&MhJ,~>
l2Q=,e=Wm2rW'Ptj8XW~>
l2Q=\eBb9.rW'P@j8XW~>
l2Q<Te8h_lrW&MhJ,~>
l2Q=,e=Wm2rW'Ptj8XW~>
l2Q=\eBb9.rW'P@j8XW~>
l2Q<Te8h_lrW&MhJ,~>
l2Q=,e=Wm2rW'Suir=N~>
l2Q=\eBb9.rW'SAir=N~>
l2Q<TdrMYlrW&MhJ,~>
l2Q=,e"<g2rW'Suir=N~>
l2Q=\e'G3.rW'SAir=N~>
kl63Se8hbmrW&MhJ,~>
kl64+e=Wp3rW'Suir=N~>
kl64[eBb</rW'SAir=N~>
kl63Se8hbmrW&MhJ,~>
kl64+e=Wp3rW'Suir=N~>
kl64[eBb</rW'SAir=N~>
kl63Se8hbmrW&MhJ,~>
kl64+e=Wp3rW'W!iW"E~>
kl64[eBb</rW'VBiW"E~>
kl63Se8hbmrW&MhJ,~>
kl64+e=Wp3rW'W!iW"E~>
kl64[eBb</rW'VBiW"E~>
kl63SdrM\mrW&MhJ,~>
kl64+e"<j3rW'W!iW"E~>
kl64[e'G6/rW'VBiW"E~>
kPp*Re8henrW&MhJ,~>
kPp+*e=Ws4rW'W!iW"E~>
kPp+ZeBb?0rW'VBiW"E~>
kPp*Re8henrW&MhJ,~>
kPp+*e=Ws4rW'Z"i;\<~>
kPp+ZeBb?0rW'YCi;\<~>
kPp*Re8henrW)os"h-f(*H:YKs*t~>
kPp+*e=Ws4rW)ma"Y^Mi#TZ1O6f@up~>
kPp+ZeBb?0rW)m-"UbG5!XB4V&)dJ<~>
k5U!QeT.norW)os"\#lkk#c)js*t~>
k5U")eXs'5rW)ma"VNLS4;SpW6f@up~>
k5U"Ye^(H1rW)m-"U#2C%L!'X&)dJ<~>
k5U!Qe8hhorW)co!UUMts*t~>
k5U")e=X!5rW)a]!Bp\/6f7oo~>
k5U"YeBbB1rW)a)!=f.P&)[D;~>
jo9mPeT.qprW)co!SATos*t~>
jo9n(eXs*6rW)a]!BCJ.6f7oo~>
jo9nXe^(K2rW)a)!=]+P&)[D;~>
jo9mPeT.qprW)co!EXrPs*t~>
jo9n(eXs*6rW)a]!>d!'6f.in~>
jo9nXe^(K2rW)a)!<ibO&)R>:~>
jo9mPeT.qprW)fp!fohJVuM8~>
jo9n(eXs*6rW)d^![\OHb!Y%cJ,~>
jo9nXe^(K2rW)d*!=/hM&)R>:~>
jSsdOeoJ%qrW)iq!fT;8VZ2/~>
jSse'et937rW)g_![SCCb!Y"bJ,~>
jSseWf$CT3rW)g+!XJo=aq*>.J,~>
jSsdOeT.tqrW)lr!hhUEV>l&~>
jSse'eXs-7rW)j`!\+^Ga[=naJ,~>
jSseWe^(N3rW)j,!XSr=aUd5-J,~>
j8X[NeoJ(rrW)os!kUAZV#Pr~>
j8X\&et968rW)ma!\k0La@"e`J,~>
j8X\Vf$CW4rW)m-!Xf)?a:I,,J,~>
j8X[NeoJ(rrW)os!"\u-!:QldJ,~>
j8X\&et968rW)ma!!N3"!'e^qh#Dm~>
j8X\Vf$CW4rW)m-!!2ut!"R6ah#Dm~>
ir=RMf5cHBbQ!(~>
ir=S%f:RU]n3c"2J,~>
ir=SUf?]!Yn.4=SJ,~>
ir=RMeoH?Abl<1~>
ir=S%et7L\njD13J,~>
ir=SUf$AmXndjLTJ,~>
ir=RMeoH?Abl<1~>
ir=S%et7L\njD13J,~>
ir=SUf$AmXndjLTJ,~>
iW"ILf5cHBbl<1~>
iW"J$f:RU]njD13J,~>
iW"JTf?]!YndjLTJ,~>
iW"ILf5cHBbl<1~>
iW"J$f:RU]o0_73J,~>
iW"JTf?]!Yo+0RTJ,~>
i;\@KfQ)QCbl<1~>
i;\A#fUm^^o0_73J,~>
i;\ASf[#*Zo+0RTJ,~>
i;\@Kf5cHBc2W:~>
i;\A#f:RU]og@F4J,~>
i;\ASf?]!YoafaUJ,~>
i;\@Kf5cHBc2W:~>
i;\A#f:RU]og@F4J,~>
i;\ASf?]!YoafaUJ,~>
huA7JfQ)QCc2W:~>
huA8"fUm^^og@F4J,~>
huA8Rf[#*ZoafaUJ,~>
huA7JfQ)QCc2W:~>
huA8"fUm^^p-[L4J,~>
huA8Rf[#*Zp(,gUJ,~>
hZ&.IflDZDc2W:~>
hZ&/!fq3g_p-[L4J,~>
hZ&/Qg!>3[p(,gUJ,~>
hZ&.IfQ)QCcMrC~>
hZ&/!fUm^^pd<[5J,~>
hZ&/Qf[#*Zp^c!VJ,~>
hZ&.IfQ)QCcMrC~>
hZ&/!fUm^^pd<[5J,~>
hZ&/Qf[#*Zp^c!VJ,~>
h>`%HflDZDcMrC~>
h>`%ufq3g_q*Wa5J,~>
h>`&Pg!>3[q%)'VJ,~>
h>`%HflDZDcMrC~>
h>`%ufq3g_q*Wa5J,~>
h>`&Pg!>3[q%)'VJ,~>
h#DqGflDZDci8L~>
h#Dqtfq3g_qa8p6J,~>
h#DrOg!>3[q[_6WJ,~>
g])hFg2_cEci8L~>
g])hsg7Np`qa8p6J,~>
g])iNg<Y<\q[_6WJ,~>
g])hFg2_cEci8L~>
g])hsg7Np`r'T!6J,~>
g])iNg<Y<\r"%<WJ,~>
gAc_EgN%lFci8L~>
gAc_rgRj$ar'T!6J,~>
gAc`MgWtE]r"%<WJ,~>
gAc_EgN%lFci8L~>
gAc_rgRj$arBo'6J,~>
gAc`MgWtE]r=@BWJ,~>
g&HVDgN%lFd/SU~>
g&HVqgRj$as$P67J,~>
g&HWLgWtE]rt!QXJ,~>
f`-MCgi@uGd/SU~>
f`-Mpgn0-bs$P67J,~>
f`-NKgs:N^rt!QXJ,~>
f`-MCgi@uGd/SU~>
f`-Mpgn0-b!(506J,~>
f`-NKgs:N^!"[KWJ,~>
fDgDBh/\)Hd/SU~>
fDgDoh4K6cd/SU~>
fDgEJh9UW_d/SU~>
fDgDBh/\)Hd/SU~>
fDgDoh4K6cd/SU~>
fDgEJh9UW_d/SU~>
f)L;Ah/\)HdJn^~>
f)L;nh4K<eci8L~>
f)L<Ih9U]aci8L~>
ec12@hK"2IdJn^~>
ec12mhOfEfci8L~>
ec13HhTpfbci8L~>
ec12@hK"2IdJn^~>
ec12mhOfHgcMrC~>
ec13HhTpiccMrC~>
eGk)?hf=;JdJn^~>
eGk)lhk,Tic2W:~>
eGk*Ghp6uec2W:~>
e,Ou>hf=;Jdf4g~>
e,Oukhk,Wjc2W:~>
e,P!Fhp7#fc2W:~>
e,Ou>hf=;Jdf4g~>
e,Oukhk,Zkbl<1~>
e,P!Fhp7&gbl<1~>
df4l=i,XDKdf4g~>
df4lji1Gclbl<1~>
df4mEi6R/hbl<1~>
df4l=i,XDKdf4g~>
df4lji1GfmbQ!(~>
df4mEi6R2ibQ!(~>
dJnc<iGsMLdf4g~>
dJnciiLbrob5Zt~>
dJndDiQm>kb5Zt~>
d/SZ;iGsMLe,Op~>
d/SZhiLbupb5Zt~>
d/S[CiQmAlb5Zt~>
d/SZ;iGsMLe,Op~>
d/SZhiLc#qao?k~>
d/S[CiQmDmao?k~>
ci8Q:ic9VMe,Op~>
ci8Qgih)/saT$b~>
ci8RBim3PoaT$b~>
cMrH9j)T_Ne,Op~>
cMrHfj.D8taT$b~>
cMrIAj3NYpaT$b~>
cMrH9j)T_Ne,Op~>
cMrHfj.D;ua8^Y~>
cMrIAj3N\qa8^Y~>
c2W?8j)T_NeGk%~>
c2W?ej.DB"`rCP~>
c2W@@j3Nbs`rCP~>
bl<67jDohOeGk%~>
bl<6djI_N$`W(G~>
bl<7?jNinu`W(G~>
bQ!-6j`5qPeGk%~>
bQ!-cje%Z&`;b>~>
bQ!.>jj0&"`;b>~>
b5[$5k&Q%QeGk%~>
b5[$bk+@f(_uG5~>
b5[%=k0K2$_uG5~>
ao?p4kAl.ReGk%~>
ao?pakF[o)_uG5~>
ao?q<kKf;%_uG5~>
aT$g3kAl.Rec1.~>
aT$g`kF[u+_Z,,~>
aT$h;kKfA'_Z,,~>
aT$g3kAl.Rec1.~>
aT$g`kF\#,_>f#~>
aT$h;kKfD(_>f#~>
a8^^2k]27Sec1.~>
a8^^_kb"/._#Jo~>
a8^_:kg,P*_#Jo~>
`rCU1l#M@Tec1.~>
`rCU^l(=;0^]/f~>
`rCV9l-G\,^]/f~>
`W(L0l#M@Tf)L7~>
`W(L]l(=A2^Ai]~>
`W(M8l-Gb.^Ai]~>
`;bC/l>hIUf)L7~>
`;bC\lCXJ3^Ai]~>
`;bD7lHbk/^Ai]~>
_uG:.lZ.RVf)L7~>
_uG:[l^sV5^&NT~>
_uG;6ld)"1^&NT~>
_Z,1-luI[Wf)L7~>
_Z,1Zm%9b7]`3K~>
_Z,25m*D.3]`3K~>
_Z,1-luI[Wf)L7~>
_Z,1Zm%9e8]DmB~>
_Z,25m*D14]DmB~>
_>f(,luI[WfDg@~>
_>f(Ym%9k:])R9~>
_>f)4m*D76])R9~>
_#Jt+m;ddXfDg@~>
_#JtXm@U"<\c70~>
_#Ju3mE_C8\c70~>
^]/k*mW*mYfDg@~>
^]/kWm[p.>\Gq'~>
^]/l2ma%O:\Gq'~>
^Aib)mrF!ZfDg@~>
^AibVn"67?\Gq'~>
^Aic1n'@X;\Gq'~>
^&NY(n8a*[fDg@~>
^&NYUn=QCA\,Us~>
^&NZ0nB[d=\,Us~>
]`3P'n8a*[f`-I~>
]`3PTn=QLD[Jta~>
]`3Q/nB[m@[Jta~>
]DmG&nT'3\f`-I~>
]DmGSnXlXF[/YX~>
]DmH.n^"$B[/YX~>
])R>%noB<]f`-I~>
])R>Rnt2dHZi>O~>
])R?-o$=0DZi>O~>
\c75$o5]E^f`-I~>
\c75Qo:MpJZN#F~>
\c76,o?X<FZN#F~>
\,V#"oQ#N_g&HR~>
\,V#OoUi*MZ2]=~>
\,V$*oZsKIZ2]=~>
[f:o!ol>W`g&HR~>
[f:oNoq/6OYlB4~>
[f:p)p!9WKYlB4~>
[Jteup2Y`ag&HR~>
[JtfMp7JERY5a"~>
[Jtg(p<TfNY5a"~>
[/Y\tpMtibg&HR~>
[/Y]LpReQTXoEn~>
[/Y^'pWorPXoEn~>
Zi>Sspi:rcg&HR~>
Zi>TKpn+]VXT*e~>
Zi>U&ps6)RXT*e~>
ZN#Jrpi:rcgAc[~>
ZN#KJpn+cXX8d\~>
ZN#L%ps6/TX8d\~>
YlB8pqJq/egAc[~>
YlB9HqOb#[WrIS~>
YlB:#qTlDWWrIS~>
YQ'/oqf78fgAc[~>
YQ'0Gqk(/]WW.J~>
YQ'1"qp2PYWW.J~>
Y5a&nr,RAggAc[~>
Y5a'Fr1C>`VuM8~>
Y5a(!r6M_\VuM8~>
XoErmrGmJhgAc[~>
XoEsErL^JbVZ2/~>
XoEsurQhk^VZ2/~>
XT*ilrGmJhg])d~>
XT*jDrL^PdV>l&~>
XT*jtrQhq`V>l&~>
X8d`krc3Sig])d~>
X8daCrh$\fV#Pr~>
X8dasrm/(bV#Pr~>
WW.Ni!-3Yjg])d~>
WW.OA!2$ehU]5i~>
WW.Oq!7/1dU]5i~>
W;hEhJcFL)J,~>
W;hF@]0i:lJ,~>
W;hFp]+:V8J,~>
VZ26gJcFO*J,~>
VZ27?^-eOmJ,~>
VZ27o^(6k9J,~>
V>l0gJcFO*J,~>
V>l1?^I+UmJ,~>
V>l1o^CQq9J,~>
U]6$gJcFO*J,~>
U]6%?_*aamJ,~>
U]6%o_%3(9J,~>
U&TmgJcFO*J,~>
U&Tn?_F'gmJ,~>
U&Tno_@N.9J,~>
T`9ggJcFO*J,~>
T`9h?`']smJ,~>
T`9ho`"/:9J,~>
T)XXfJcFR+J,~>
T)XY>a$Z3nJ,~>
T)XYn`t+O:J,~>
SH"LfJcFR+J,~>
SH"M>a?u9nJ,~>
SH"Mna:FU:J,~>
S,\FfJcFR+J,~>
S,\G>b!VEnJ,~>
S,\Gnaq'a:J,~>
RK&:fJcFR+J,~>
RK&;>bX7QnJ,~>
RK&;nbR]m:J,~>
QiE.fJcFR+J,~>
QiE/>bsRWnJ,~>
QiE/nbn#s:J,~>
QN*%eJcFU,J,~>
QN*&=cpNloJ,~>
QN*&mcju3;J,~>
PlHneJcFU,J,~>
PlHo=dR0#oJ,~>
PlHomdLV?;J,~>
PQ-heJcFU,J,~>
PQ-i=dmK)oJ,~>
PQ-imdgqE;J,~>
OT1VeJcFU,J,~>
OT1W=eO,5oJ,~>
OT1WmeIRQ;J,~>
NrPJeJcFU,J,~>
NrPK=fL(GoJ,~>
NrPKmfFNc;J,~>
MuT5dJcFX-J,~>
MuT6<gI$\pJ,~>
MuT6lgCK#<J,~>
M>s)dJcFX-J,~>
M>s*<hEunpJ,~>
M>s*lh@G5<J,~>
L]<rdJcFX-J,~>
L]<s<i'W(q!<7Q~>
L]<sli"(D=!<7Q~>
K`@`dJcFX-J,~>
K`@a<j$SCtrVqB~>
K`@alit$_@rVqB~>
K)_QcJcF[.J,~>
K)_R;k!O_"qu;0~>
K)_Rkjq!%Cqu;0~>
JcGcMV/h.ei;\<~>
JcGcMV4Zs=JcGQGJ,~>
JcGcMV9e?9JcGQGJ,~>
JcG]KVfI@gi;\<~>
JcG]KVk<9BJcGHDJ,~>
JcG]KVpFZ>JcGHDJ,~>
JcGTHWcE[ji;\<~>
JcGTHWh8ZGJcGBBJ,~>
JcGTHWmC&CJcGBBJ,~>
JcGKEX`B!mi;\<~>
JcGKEXe5,NJcG6>J,~>
JcGKEXj?MJJcG6>J,~>
JcG?AY]><piW"E~>
JcG?AYb1SUJcG-;J,~>
JcG?AYg;tQJcG-;J,~>
JcG0<[;piuiW"E~>
JcG0<[@d7^JcG!7J,~>
JcG0<[EnXZJcG!7J,~>
JcG$8\T39$iW"E~>
JcG$8\Y&gfJcFj3J,~>
JcG$8\^13bJcFj3J,~>
JcFm4]lJ](iW"E~>
JcFm4]q9lUiW"E~>
JcFm4^!D90iW"E~>
JcFa0a)Zb2g])d~>
JcFa0a.Iq_g])d~>
JcFa0a3T>:g])d~>
JcFI(eT-6@ec1.~>
JcFI(eXqEmec1.~>
JcFI(e^&gHec1.~>
JcF!pm;ddXb5Zt~>
JcF!pm@St0b5Zt~>
JcF!pmE^@`b5Zt~>
JcC<$K)^?~>
JcC<$K)^?~>
JcC<$K)^?~>
JcC<$K)^?~>
JcC<$K)^?~>
JcC<$K)^?~>
JcC<$K)^?~>
JcC<$K)^?~>
JcC<$K)^?~>
JcC<$K)^?~>
JcC<$K)^?~>
JcC<$K)^?~>
JcC<$K)^?~>
JcC<$K)^?~>
JcC<$K)^?~>
JcC<$K)^?~>
JcC<$K)^?~>
JcC<$K)^?~>
JcC<$K)^?~>
JcC<$K)^?~>
JcC<$K)^?~>
%%EndData
showpage
%%Trailer
end
%%EOF
